"","L","T","K","F","R","N","labels"
"1",6.75155279503106,5.12274368231047,3.97899159663866,4.47330960854093,6.20363636363636,4.19230769230769,"vasc_new"
"2",7.11666666666667,4.27450980392157,3.85,6.48888888888889,4.66037735849057,3.46551724137931,"vasc_lost"
"3",5.953125,4.71028037383178,3.61111111111111,5.52124645892351,5.36239782016349,4.43301435406699,"vasc_t1"
"4",6.2169014084507,4.95978062157221,3.75089605734767,4.94736842105263,5.81833616298812,4.40476190476191,"vasc_t2"
"5",5.86666666666667,3.13207547169811,5.12068965517241,5.22222222222222,5,2.79411764705882,"bryo_new"
"6",7,3,5.58333333333333,6.30769230769231,3.07692307692308,2.35714285714286,"bryo_lost"
"7",5.64705882352941,3.20618556701031,5.17821782178218,5.33653846153846,3.59223300970874,3.02631578947368,"bryo_t1"
"8",5.61744966442953,3.19424460431655,5.12244897959184,5.20779220779221,4.20529801324503,2.98809523809524,"bryo_t2"
