code,description,valid_from_survey_year,valid_to_survey_year
0,Current,1984,
1,Current+1,1984,
2,Older than current+1,2001,
3,"Older than current, combination of type 1 and type 2 (e.g. for Qu. ilex)",2001,
