Name,L,T,K,F,R,N,S
Abies alba,3,5,4,x,x,x,0
Acer campestre,5,6,4,5,7,6,0
Acer monspessulanum,6,8,4,3,8,4,0
Acer negundo,5,6,6,6,7,7,0
Acer opalus agg.,5,8,4,4,8,6,0
Acer platanoides,4,6,4,x,x,x,0
Acer pseudoplatanus,4,x,4,6,x,7,0
Aceras anthropophorum,7,7,2,4~,8,3,0
Achillea atrata agg.,9,2,4,5,8,3,0
Achillea cartilaginea,8,6,6,8~,7,6,0
Achillea clavenae,8,2,5,5,8,3,0
Achillea clusiana,9,2,4,5,9,3,0
Achillea macrophylla,6,2,4,6,6,8,0
Achillea millefolium collina,9,6,6,2,7,2,0
Achillea millefolium millefolium,8,x,x,4,x,5,1
Achillea millefolium pannonica,7,7,6,3,6,2,0
Achillea millefolium roseoalba,8,6,4,5,7,7,0
Achillea millefolium setacea,9,7,8,2,7,1,0
Achillea moschata,9,1,4,6,3,2,0
Achillea nana,8,1,3,6,6,2,0
Achillea nobilis,8,7,7,4,8,1,0
Achillea ptarmica,8,6,3,8,4,2,0
Achnatherum calamagrostis,9,6,4,3,8,2,0
Acinos alpinus,9,3,3,5,9,2,0
Acinos arvensis,9,6,3,2,5,1,0
Aconitum napellus (ssp. neomontanum),7,x,2,7,7,8,0
Aconitum napellus ssp. formosum,7,3,5,7,6,6,0
Aconitum napellus ssp. tauricum,8,2,5,5,7,7,0
Aconitum paniculatum,6,2,4,6,7,7,0
Aconitum variegatum,5,4,4,7=,8,7,0
Aconitum vulparia (lycoctonum),3,4,4,7,7,8,0
Acorus calamus,8,6,5,10,7,7,0
Actaea spicata,3,5,4,5,6,7,0
Adenophora liliifolia,7,6,6,6~,8,2,0
Adenostyles alliariae,6,3,2,6,x,8,0
Adenostyles glabra,6,3,4,6,8,4,0
Adonis aestivalis,6,6,7,3,8,3,0
Adonis flammea,6,6,6,3,9,3,0
Adonis vernalis,7,6,7,3,7,2,0
Adoxa moschatellina,5,x,5,6,7,8,0
Aegopodium podagraria,5,5,3,6,7,8,0
Aethionema saxatile ,9,4,4,4~,9,2,0
Aethusa cynapium ssp. agrestis,7,7,3,4,9,5,0
Aethusa cynapium ssp. cynapioides,5,6,4,5,7,7,0
Aethusa cynapium ssp. cynapium,6,6,3,5,8,6,0
Agrimonia eupatoria,7,6,4,4,8,4,0
Agrimonia procera,5,6,3,5,6,4,0
Agropyron caninum,6,6,3,6,7,8,0
Agropyron intermedium,7,6,6,3~,7,3,0
Agropyron junceiforme,9,6,3,6=,7,7,7
Agropyron pungens (littorale),9,7,2,5~,7,5,6
Agropyron repens,7,6,7,x~,x,7,0
Agrostemma githago,7,x,x,x,x,x,0
Agrostis alpina,8,2,3,5,6,4,0
Agrostis canina,9,5,5,9,3,2,0
Agrostis rupestris,8,2,2,4,2,1,0
Agrostis scabra,8,6,x,8~,4,x,0
Agrostis schleicheri,8,1,4,5,7,4,0
Agrostis schraderiana,6,2,6,5,6,6,0
Agrostis stolonifera gigantea,7,5,3,8,7,6,0
Agrostis stolonifera stolonifer,8,x,5,7~,x,5,0
Agrostis stricta (coarctata),9,7,3,2,2,1,0
Agrostis tenuis (capillaris),7,x,3,x,4,4,0b
Ailanthus altissima,8,8,2,5,7,8,0
Aira caryophyllea,9,6,2,2,4,1,0
Aira praecox,9,6,2,2,2,1,0
Ajuga chamaepitys,7,8,2,4,9,2,0
Ajuga genevensis,8,x,x,3,7,2,0
Ajuga pyramidalis,7,x,2,5,1,1,0
Ajuga reptans,6,x,2,6,6,6,0
Alchemilla alpina (agg.),9,2,2,5,2,2,0
Alchemilla conjuncta grossidens,7,3,2,5,8,2,0
Alchemilla conjuncta hoppeana,9,2,4,5,9,3,0
Alchemilla conjuncta pallens,7,2,3,5,7,4,0
Alchemilla conjuncta plicatula,8,3,3,6,7,x,0
Alchemilla fissa cuspidens,8,3,x,5,x,x,0
Alchemilla fissa fallax,8,3,4,5,4,2,0
Alchemilla fissa fissa,8,2,4,6,x,3,0
Alchemilla fissa incisa,8,3,x,8,8,2,0
Alchemilla fissa othmarii,8,3,x,5,7,2,0
Alchemilla fissa pyrenaica,8,3,x,5,x,2,0
Alchemilla hybrida colorata,8,2,3,4,7,2,0
Alchemilla hybrida exigua,8,3,x,5,8,4,0
Alchemilla hybrida flabellata,8,1,x,4,x,1,0
Alchemilla hybrida hybrida (glaucescens),7,4,4,5,4,3,0
Alchemilla pentaphyllea,7,2,2,7,3,4,0
Alchemilla splendens kerneri,8,2,x,5,x,x,0
Alchemilla vulgaris acutiloba,6,4,4,5,6,6,0
Alchemilla vulgaris cleistophylla,8,3,x,4,x,x,0
Alchemilla vulgaris connivens,7,4,x,5,7,x,0
Alchemilla vulgaris coriacea,7,3,3,9,4,3,0
Alchemilla vulgaris crinita,7,3,4,6,x,4,0
Alchemilla vulgaris decumbens,7,2,x,6,x,x,0
Alchemilla vulgaris demissa,7,3,x,7,x,x,0
Alchemilla vulgaris effusa,8,3,x,9,4,2,0
Alchemilla vulgaris gracilis,7,4,5,7,x,x,0
Alchemilla vulgaris inconcinna,7,3,x,5,6,6,0
Alchemilla vulgaris monticola (pastoralis),6,x,5,5,6,4,0
Alchemilla vulgaris obtusa,7,3,x,6,4,4,0
Alchemilla vulgaris reniformis,7,3,4,8,4,2,0
Alchemilla vulgaris rubristipula,7,4,4,5,6,4,0
Alchemilla vulgaris sinuata,7,3,4,5,6,5,0
Alchemilla vulgaris straminea,7,4,4,9,4,3,0
Alchemilla vulgaris strigosula,7,4,4,5,x,x,0
Alchemilla vulgaris subcrenata,7,x,4,5,5,6,0
Alchemilla vulgaris tenuis,7,4,x,5,6,4,0
Alchemilla vulgaris tirolensis,7,3,x,5,7,5,0
Alchemilla vulgaris trunciloba,7,4,4,6,7,6,0
Alchemilla vulgaris versipila,8,2,4,5,8,4,0
Alchemilla vulgaris xanthochlora,6,4,2,7,7,x,0
Aldrovanda vesiculosa,5,8,4,12,7,4,0
Alisma gramineum,7,7,6,11,7,4,0
Alisma lanceolatum,7,7,2,10,7,5,0
Alisma plantago,7,5,x,10,x,8,0
Alliaria petiolata,5,6,3,5,7,9,0
Allium angulosum (acutangulum),8,7,7,8~,8,2,0
Allium carinatum,8,5,4,3~,8,2,0
Allium montanum,9,x,5,2,6,2,0
Allium oleraceum,7,6,4,3,7,4,0
Allium paradoxum,6,6,3,5,7,7,0
Allium pulchellum,9,7,6,2,8,1,0
Allium rotundum,7,7,6,4,8,4,0
Allium schoenoprasum,7,x,7,x~,7,2,0
Allium scorodoprasum,6,6,5,7,7,7,0
Allium sphaerocephalon,9,8,5,3,8,2,0
Allium strictum,9,6,8,2,6,1,0
Allium suaveolens,7,6,5,8~,9,2,0
Allium ursinum ,2,x,2,6,7,8,0
Allium victorialis,8,3,x,5,6,4,0
Allium vineale,5,7,3,4,x,7,0
Alnus glutinosa,5,5,3,9=,6,x,1
Alnus incana,6,4,5,7=,8,x,0
Alnus viridis,7,3,4,6,5,7,0
Alopecurus aequalis (fulvus),9,x,5,9=,x,9,0
Alopecurus bulbosus,8,6,2,7=,7,5,3
Alopecurus geniculatus,9,6,3,8=,7,7,2
Alopecurus myosuroides,6,6,3,5,7,6,0
Alopecurus pratensis,6,x,5,6,6,7,0
Alopecurus utriculatus,8,7,4,6~,8,4,2
Althaea hirsuta,7,8,5,4,8,3,0
Althaea officinalis,6,7,6,7=,8,4,2
Alyssum alyssoides,9,6,4,3,8,1,0
Alyssum montanum,9,6,4,2,7,1,0
Amaranthus albus,8,8,6,2,x,7,1
Amaranthus blitoides,9,7,6,3,x,8,0
Amaranthus deflexus,8,9,x,4,7,7,0
Amaranthus graecizans (angustifolius),9,9,x,3,9,8,0
Amaranthus hybridus agg.,8,8,5,4,7,7,1
"Amaranthus lividus (viridis, blitum)",8,7,3,4,x,8,0
Amaranthus powellii (chlorostachys),8,7,5,4,8,6,1
Amaranthus retroflexus,8,7,6,4,7,7,1
Ambrosia artemisiifolia,9,7,x,4,8,6,0
Ambrosia psilostachya,9,8,x,3,8,4,0
Amelanchier lamarckii,6,6,2,5,3,3,0
Amelanchier ovalis,7,x,4,3,x,3,0
Ammi majus,7,8,3,4~,8,7,0
Ammocalamagrosti baltica,8,6,3,4,x,2,1
Ammophila arenaria,9,6,3,4,7,5,1
Anacamptis pyramidalis,8,7,2,3,9,2,0
Anagallis arvensis,6,6,3,5,x,6,0
Anagallis foemina (coerulea),8,7,5,4,9,5,0
Anagallis tenella,8,6,1,9,x,2,0
Anarrhinum bellidifolium,8,7,2,4,4,3,0
Anchusa arvensis (Lycopsis),7,6,6,4,x,4,0
Anchusa officinalis,9,7,5,3,7,5,0
Andromeda polifolia,9,4,5,9,1,1,0
Androsace alpina,9,1,x,6,2,3,0
Androsace chamaejasme,9,2,6,5,9,2,0
Androsace elongata,9,8,7,2,6,1,0
Androsace hausmannii,9,1,4,3~,9,2,0
Androsace helvetica,9,2,4,x,8,2,0
Androsace lactea,8,3,4,4,9,3,0
Androsace maxima,7,8,7,4,7,3,1
Androsace obtusifolia,8,2,4,5,1,1,0
Androsace septentrionalis,8,7,7,2,5,2,0
Androsace vandellii,9,2,4,4,4,2,0
Anemone narcissiflora,8,3,2,5~,7,4,0
Anemone nemorosa,x,x,3,5,x,x,0
Anemone ranunculoides,3,6,4,6,8,8,0
Anemone sylvestris,7,7,7,3,7,3,0
Angelica archangelica,7,6,5,9=,x,9,1
Angelica palustris,7,6,6,8,x,x,0
Angelica sylvestris,7,x,4,8,x,4,0
Antennaria carpatica,8,2,x,5,6,2,0
Antennaria dioica,8,x,x,4,3,2,0
Anthemis arvensis,7,6,5,4,6,6,0
Anthemis austriaca,8,7,6,3,9,5,0
Anthemis cotula,7,6,3,4,x,5,0
Anthemis ruthenica,9,7,6,3,7,4,0
Anthemis tinctoria,8,6,5,3,6,4,0
Anthericum liliago,7,6,4,3,5,2,0
Anthericum ramosum,7,5,4,3,7,3,0
Anthoxanthum alpinum,7,3,x,6,2,2,0
Anthoxanthum odoratum,x,x,x,x,5,x,1
Anthoxanthum puelii (aristatum),7,6,2,x,2,3,0
Anthriscus caucalis (scandicina),8,6,2,5,6,6,0
Anthriscus cerefolium,6,7,6,5,x,8,0
Anthriscus nitida,4,4,4,6,8,8,0
Anthriscus sylvestris,7,x,5,5,x,8,0
Anthyllis vulneraria,8,6,3,3,7,2,0
Anthyllis vulneraria ssp. alpestris,8,2,4,4,8,2,0
Antirrhinum majus,7,7,2,5,7,6,0
Apera interrupta,9,7,3,2,4,1,0
Apera spica,6,6,4,6,5,x,0
Aphanes arvensis,6,6,2,6,x,5,0
Aphanes inexspectata,7,7,2,5,4,4,0
Apium graveolens,9,6,2,8,7,8,4
Apium inundatum,7,6,2,10,x,2,0
Apium nodiflorum,7,8,3,10,x,6,1
Apium repens,9,6,3,7=,7,7,1
Aposeris foetida,4,4,4,5,6,5,0
Aquilegia atrata,6,4,4,4~,8,3,0
Aquilegia einseliana (aquilegioides),7,3,4,5,9,4,0
Aquilegia vulgaris,6,6,4,4,7,4,0
Arabidopsis thaliana,6,6,3,4,4,4,0
Arabis alpina,7,3,3,5,9,3,0
Arabis auriculata (recta),7,7,6,3,7,3,0
Arabis brassica (pauciflora),4,7,4,3,8,3,0
Arabis caerulea,8,2,4,7,9,4,0
Arabis ciliata (corymbifera) ,9,2,4,5,9,3,0
Arabis glabra (Turritis),6,6,2,3,8,5,0
Arabis hirsuta hirsuta,7,5,3,4~,8,x,0
Arabis hirsuta nemorensis,7,6,5,7,6,4,0
Arabis planisiliqua,7,7,5,7=,7,4,0
Arabis pumila,9,2,4,x,9,2,0
Arabis soyeri ssp. subcoriacea,9,2,4,9=,9,2,0
Arabis turrita,6,7,4,3,7,3,0
Arctium lappa,9,6,4,5,7,9,0
Arctium minus,9,5,3,5,x,8,0
Arctium nemorosum (vulgare),6,6,2,7,7,9,0
Arctium tomentosum,8,5,7,5,8,9,0
Arctostaphylos alpinus,7,2,5,5,x,2,0
Arctostaphylos uva,6,x,5,3,x,2,0
Aremonia agrimonoides,4,7,4,5,8,6,0
Arenaria biflora,8,2,4,7,5,2,0
Arenaria multicaulis,9,2,3,5,8,2,0
Arenaria serpyllifolia agg.,8,x,x,4,7,x,0
Aristolochia clematitis,6,7,3,4~,8,8,0
Armeria alliacea (arenaria),8,8,2,3,6,2,0
Armeria maritima alpina,9,1,x,4,x,1,0
Armeria maritima elongata,7,6,3,3,6,2,0
Armeria maritima elongata,8,5,3,3,5,1,0
Armeria maritima halleri,9,x,2,3,6,1,0
Armeria maritima maritima,8,6,2,6=,5,4,6
Armeria maritima purpurea,8,6,3,10,7,2,0
Armoracia rusticana (lapathifolia),8,6,3,5,x,9,0
Arnica montana,9,4,4,5,3,2,0
Arnoseris minima,7,6,2,4,3,3,0
Arrhenatherum elatius,8,5,3,x,7,7,0
Artemisia absinthium,9,6,7,4,7,8,0
Artemisia annua,9,7,7,4,7,6,0
Artemisia campestris,9,6,5,2,5,2,0
Artemisia genipi,8,1,x,6,8,x,0
Artemisia maritima,9,6,x,5=,x,7,5
Artemisia mutellina (laxa),9,2,6,3,4,2,0
Artemisia pontica,9,7,6,3,7,4,0
Artemisia rupestris,9,6,8,7,8,3,3
Artemisia verlotiorum,9,6,3,6,7,8,0
Artemisia vulgaris,7,6,x,6,x,8,0
Arum maculatum agg.,3,6,2,7,7,8,0
Aruncus dioicus,4,5,4,6,x,8,0
Asarum europaeum,3,6,5,5,7,6,0
Asparagus officinalis,6,6,7,3~,x,4,0
Asperugo procumbens,7,6,6,4,8,9,0
Asperula arvensis,7,7,3,4,9,3,0
Asperula cynanchica,7,x,5,3,8,3,0
Asperula taurina,5,7,x,5,8,6,0
Asperula tinctoria,5,6,6,4,9,3,0
Asplenium adiantum,6,7,2,4,2,3,0
Asplenium adulterinum,5,4,4,5,6,1,0
Asplenium alternifolium,7,4,4,4,3,2,0
Asplenium billotii,5,6,1,5,4,x,0
Asplenium cuneifolium,6,5,4,5,6,1,0
Asplenium fissum,7,2,4,5,8,3,0
Asplenium fontanum,6,5,2,6,8,2,0
Asplenium ruta,8,x,3,3,8,2,0
Asplenium seelosii,8,2,4,3,9,1,0
Asplenium septentrionale,8,x,4,3,2,2,0
Asplenium trichomanes,5,x,3,5,x,3,0
Asplenium viride,4,4,3,6,8,x,0
Aster alpinus,9,2,5,5,7,2,0
Aster amellus,8,6,6,4,9,3,0
Aster bellidiastrum,7,3,4,5,8,4,0
Aster linosyris,8,7,5,2,8,2,0
Aster novae,7,6,5,7=,7,9,0
Aster tripolium,8,6,x,x=,7,7,8
Astragalus alpinus,9,2,7,4,6,x,0
Astragalus arenarius,7,7,7,2,7,1,0
Astragalus australis,9,1,8,5,7,2,0
Astragalus cicer,7,6,4,4~,9,2,0
Astragalus danicus,8,7,7,3~,9,2,0
Astragalus exscapus,7,6,6,3,9,2,0
Astragalus frigidus (Phaca frigida),8,2,7,4,9,2,0
Astragalus glycyphyllos,6,6,4,4,7,3,0
Astragalus onobrychis,8,7,6,2,9,1,0
Astragalus penduliflorus (Phaca pendul.),7,1,7,4,7,1,0
Astrantia bavarica,7,2,4,5,8,4,0
Astrantia major,6,4,4,6,8,5,0
Athamantha cretensis,9,3,4,4,9,2,0
Athyrium distentifolium (alpestre),5,3,3,6,6,7,0
Athyrium filix femina,3,x,3,7,x,6,0
Atriplex calotheca,9,6,x,6=,7,8,1
Atriplex glabriuscula,9,6,4,7=,7,9,3
Atriplex hastata (latifolia),8,6,x,6,x,9,0
Atriplex heterosperma ,9,6,8,5,x,6,0
Atriplex hortensis,7,6,x,5,7,8,0
Atriplex laciniata (sabulosa),9,6,x,7=,7,8,2
Atriplex littoralis,9,6,x,x=,x,9,7
Atriplex longipes ssp. longipes,9,6,x,6~,x,8,5
Atriplex oblongifolia,9,7,6,4,6,6,1
Atriplex patula,6,6,x,5,7,7,0
Atriplex rosea,9,6,7,5,7,7,1
"Atriplex sagittata (nitens, acuminata)",9,7,7,x,7,7,0
Atriplex tatarica,9,7,8,3,x,6,0
Atropa belladonna,6,x,2,5,8,8,0
Aurinia saxatilis,9,7,4,2,8,1,0
Avena fatua,6,6,6,5,7,x,0
Avena nuda (strigosa),7,x,x,5,4,5,0
Avenella flexuosa,6,x,2,x,2,3,0
Avenochloa pratensis,7,6,4,3~,x,2,0
Avenochloa pubescens,5,x,3,3,x,4,0
Avenochloa versicolor,9,2,3,5,3,2,0
Azolla caroliniana,7,7,2,11,x,7,0
Azolla filiculoides,6,8,3,11,x,8,0
Baldellia ranunculoides,8,6,1,10,x,2,1
Ballota nigra,8,6,5,5,x,8,0
Barbarea intermedia,8,6,2,5,x,7,0
Barbarea stricta,8,6,7,7=,7,8,0
Barbarea verna,8,6,2,5,x,6,0
Barbarea vulgaris,8,6,3,6,x,6,0
Bartsia alpina,8,3,3,8~,7,3,0
Bassia hirsuta,9,6,6,8=,7,5,7
Bellis perennis,8,x,2,5,x,6,0
Berberis vulgaris,7,x,4,4,8,3,0
Berteroa incana,9,6,7,3,6,4,0
Berula erecta,8,6,3,10,8,6,1
Beta vulgaris ssp. maritima,9,6,4,6=,7,9,5
Betonica alopecurus,7,2,4,5,8,3,0
Betonica officinalis,7,6,5,x~,x,3,0
Betula humilis,7,5,8,9,4,3,0
Betula nana,8,3,6,9,1,2,0
Betula pendula,7,x,x,x,x,x,0
Betula pubescens,7,x,x,8,3,3,0
Betula pubescens ssp. carpatica,9,4,x,x,1,1,0
Bidens cernua,8,6,5,9=,7,9,0
Bidens connata,8,7,5,9=,7,9,0
Bidens frondosa,7,6,x,8=,7,8,0
Bidens radiata,9,6,5,9=,6,8,0
Bidens tripartita,8,6,x,9=,x,8,0
Bifora radians,7,7,4,3,9,x,0
Biscutella laevigata,8,x,4,x,7,2,0
Blackstonia acuminata,8,9,3,7~,6,3,1
Blackstonia perfoliata,8,7,3,7~,9,4,0
Blechnum spicant,3,x,2,6,2,3,0
Blysmus compressus,8,x,5,8,8,3,1
Blysmus rufus,8,6,x,7=,7,4,5
Bolboschoenus maritimus ssp. maritimus,8,6,x,10,8,7,2
Bothriochloa ischaemum,9,7,6,3,8,3,0
Botrychium lunaria,8,x,3,4,x,2,0
Botrychium matricariifolium,7,x,4,4,3,2,0
Botrychium multifidum,6,4,4,6,4,2,0
Botrychium simplex,6,4,4,5,1,2,0
Botrychium virginianum,6,3,4,5,4,1,0
Brachypodium pinnatum,6,5,5,4,7,4,0
Brachypodium rupestre,7,5,4,4,7,3,0
Brachypodium sylvaticum,3,5,3,5,6,6,0
Brassica elongata,9,7,7,4,8,5,0
Brassica nigra,8,7,5,8=,8,7,0
Brassica oleracea,8,7,2,5,x,8,3
Briza media,8,x,3,x,x,2,0
Bromus arvensis,6,6,4,4,8,4,0
Bromus commutatus,6,7,4,4,7,3,0
Bromus erectus,8,5,2,3,8,3,0
Bromus grossus (secalinus ssp. mult.,6,7,4,5,7,x,0
Bromus hordeaceus (mollis),7,6,3,x~,x,3,1
Bromus hordeaceus ssp. thominii,8,6,2,4,4,2,1
Bromus hordeaceus lepidus,8,6,2,4,7,5,0
Bromus inermis,8,x,7,4~,8,5,0
Bromus japonicus,8,7,7,4,8,3,0
Bromus racemosus,6,6,2,8~,5,5,0
Bromus ramosus benekenii,5,5,4,5,7,5,0
Bromus ramosus ramosus,6,6,2,5,7,6,0
Bromus secalinus,6,6,3,x,5,x,0
Bromus squarrosus,8,8,7,3,8,3,0
Bromus sterilis,7,6,4,4,x,5,0
Bromus tectorum,8,6,7,3,8,4,0
Bromus willdenowii,7,7,x,4,x,x,0
Bryonia alba,7,6,5,5,7,6,0
Bryonia dioica,7,6,3,5,8,6,0
Buddleja davidii,8,7,4,4,7,4,0
Buglossoides arvensis,5,6,5,x,7,5,0
Buglossoides purpurocaerulea,5,7,4,4,7,4,0
Bunias orientalis,7,6,5,5,8,5,0
Bunium bulbocastanum,7,7,2,4,9,4,0
Buphthalmum salicifolium,8,x,4,4,8,3,0
Bupleurum falcatum ssp. falcatum,6,6,6,3,9,3,0
Bupleurum longifolium ,5,x,6,4,9,5,0
Bupleurum ranunculoides,9,2,5,5,9,3,0
Bupleurum rotundifolium,8,7,4,3,9,4,0
Bupleurum stellatum,8,3,5,4,3,3,0
Bupleurum tenuissimum,9,6,4,7~,8,4,3
Butomus umbellatus,6,6,5,10~,x,7,x
Butomus umbellatus var. vallisneriifo,6,6,5,11,7,7,0
Buxus sempervirens,5,8,2,4,8,4,0
Cakile maritima,9,6,x,6=,x,8,4
Calamagrostis arundinacea,6,5,4,5,4,5,0
Calamagrostis canescens,6,6,5,9=,6,5,0
Calamagrostis epigejos,7,5,7,x~,x,6,0
Calamagrostis phragmitoides,7,4,x,8,x,3,0
Calamagrostis pseudophragmites,8,6,8,7=,9,3,0
Calamagrostis stricta (neglecta),9,5,x,9~,x,2,0
Calamagrostis varia,7,3,4,5~,8,3,0
Calamagrostis villosa,6,4,4,7~,2,2,0
Calamintha nepeta agg.,8,7,3,3,9,3,0
Caldesia parnassifolia,7,7,4,10,8,7,0
Calendula arvensis,7,8,3,4,8,6,0
Calepina irregularis,8,9,3,3,8,4,1
Calla palustris,6,6,6,9=,6,4,0
Callitriche hermaphroditica (autumn.),7,6,5,12,4,3,0
Callitriche palustris brutia (pedunculata,8,6,3,10,x,5,1
Callitriche palustris cophocarpa (polymorpha),8,x,x,10,8,5,0
Callitriche palustris hamulata,8,4,2,10~,6,4,0
Callitriche palustris obtusangula,8,6,x,11,7,7,1
Callitriche palustris palustris (verna),6,x,x,11,5,4,0
Callitriche palustris platycarpa,7,6,2,11,7,7,0
Callitriche palustris stagnalis,6,5,x,10,6,4,1
Calluna vulgaris,8,x,3,x,1,1,0
Caltha palustris,7,x,x,9=,x,6,0
Calycocorsus stipitatus,9,3,4,9,7,4,0
Calystegia pulchra,6,6,x,5,x,7,0
Calystegia sepium,8,6,5,6,7,9,0
Calystegia soldanella,8,6,2,4,7,5,0
Camelina sativa alyssum (dentata),7,6,6,5,6,4,0
Camelina sativa microcarpa,7,6,7,4,8,4,0
Camelina sativa sativa,7,7,6,4,7,6,0
Campanula alpina,7,2,4,5,4,2,0
Campanula barbata,7,2,4,5,1,2,0
Campanula baumgartenii,7,7,4,5,6,3,0
Campanula bononiensis,7,6,6,3,8,2,0
Campanula cenisia,8,1,7,5,8,3,0
Campanula cervicaria,6,6,5,5~,8,4,0
Campanula cespitosa,9,2,5,5,8,3,0
Campanula cochleariifolia (pusilla),8,3,4,7,x,3,0
Campanula glomerata,7,x,7,4,7,3,0
Campanula latifolia,4,5,5,6,8,8,0
Campanula patula,8,6,4,5,7,5,0
Campanula persicifolia,5,5,4,4,8,3,0
Campanula rapunculoides,6,6,4,4,7,4,0
Campanula rapunculus,7,7,2,3,7,4,0
Campanula rhomboidalis,6,3,4,5,x,7,0
Campanula rotundifolia,7,5,x,x,x,2,0
Campanula scheuchzeri,8,2,4,5,x,3,0
Campanula thyrsoides,8,2,4,5,7,4,0
Campanula trachelium,4,x,3,6,8,8,0
Capsella bursa pastoris,7,x,x,5,x,6,0
Cardamine alpina,7,1,4,7,4,4,0
Cardamine amara,7,x,4,9=,6,4,0
Cardamine flexuosa,6,5,2,8,4,5,0
Cardamine hirsuta,6,6,3,5,5,7,0
Cardamine impatiens,5,x,4,6,7,8,0
Cardamine parviflora,8,6,5,7=,7,6,0
Cardamine pratensis matthioli,7,4,x,9~,3,2,0
Cardamine pratensis palustris,6,6,x,9,7,4,0
Cardamine pratensis pratensis,4,x,x,6,x,x,0
Cardamine pratensis rivularis,8,3,5,9~,5,1,0
Cardamine resedifolia,8,2,2,5,3,2,0
Cardamine trifolia,3,4,4,6,8,7,0
Cardaminopsis arenosa,9,x,4,4,6,2,0
Cardaminopsis halleri,8,4,4,6,3,x,0B
Cardaminopsis petraea (hispida),9,2,2,3,8,1,0
Cardaria draba,8,7,7,3,8,4,0
Carduus acanthoides,9,5,6,4,8,7,0
Carduus crassifolius,7,5,6,4,9,4,0
Carduus crispus,7,6,x,6,7,9,0
Carduus defloratus,7,x,4,4~,8,4,0
Carduus nutans agg.,8,6,5,4,8,6,0
Carduus personata,7,4,2,8,8,8,0
Carex acutiformis (paludosa),7,x,3,9~,7,5,0
Carex alba,5,5,7,4,8,2,0
Carex appropinquata,8,5,5,9=,9,4,0
Carex aquatilis,9,6,5,9=,7,4,0
Carex arenaria,7,6,2,3,2,2,1
Carex atherodes,8,6,8,9=,7,5,0
Carex atrata aterrima,9,2,3,7,7,3,0
Carex atrata atrata,9,2,3,5,6,2,0
Carex atrata parviflora ,9,2,3,7,8,4,0
Carex baldensis,8,3,5,4,8,3,0
Carex bigelowii ssp. rigida,8,3,3,5,1,3,0
Carex binervis,7,5,1,7,1,1,0
Carex brachystachys,5,2,2,7,9,2,0
Carex bohemica,9,6,5,8=,6,4,0
Carex brizoides,6,5,4,6~,4,3,0
Carex buekii,8,6,6,8,8,6,0
Carex buxbaumii buxbaumii,8,6,5,8=,7,2,0
Carex buxbaumii hartmannii,7,6,6,7~,x,2,0
Carex canescens brunnescens,9,2,x,9~,3,1,0
Carex canescens canescens,7,4,x,9,4,2,0
Carex capillaris,8,1,x,8,8,2,0
Carex capitata,9,4,7,8~,7,1,0
Carex caryophyllea (verna),8,x,3,4,x,2,0
Carex cespitosa,6,6,7,9=,6,4,0
Carex chordorrhiza,9,5,7,9=,4,3,0
Carex curvula,9,1,5,4,2,1,0
Carex davalliana,9,4,4,9,8,2,0
Carex depauperata,4,7,2,4,7,4,0
Carex diandra,8,6,7,9=,6,3,0
Carex digitata,3,x,4,5,x,4,0
Carex dioica,9,4,x,9,x,2,0
Carex distans,9,6,3,6~,8,x,5
Carex disticha,8,6,x,9=,8,5,0
Carex echinata (stellulata),8,x,3,8~,3,2,0
Carex elata (stricta),8,x,2,10~,x,5,0
Carex elongata,4,6,3,9~,7,6,0
Carex ericetorum,5,5,7,4,x,2,0
Carex extensa,9,6,3,7=,x,4,6
Carex ferruginea,8,2,4,5,8,4,0
Carex firma,9,2,4,4,9,2,0
Carex flacca (glauca),7,x,3,6~,8,4,1
Carex flava flava,8,x,2,9,8,2,0
Carex flava lepidocarpa,9,5,2,9,9,2,0
Carex flava oederi (serotina),8,x,3,9,x,2,2
Carex flava scandinavica,9,6,3,7~,7,5,1
Carex flava tumidicarpa (demissa),8,x,1,9,4,2,0
Carex foetida,8,2,4,7,4,5,0
Carex frigida,9,2,2,8,8,2,0
Carex fritschii,6,7,4,4,5,4,0
Carex fuliginosa,9,1,5,7,2,1,0
Carex gracilis,7,5,7,9=,6,4,0
Carex hallerana,6,8,2,3,8,3,0
Carex heleonastes,8,5,7,9=,4,3,0
Carex hirta,7,6,3,6~,x,5,0
Carex hordeistichos,9,7,6,7~,7,5,2
Carex hostiana,8,5,2,9,6,2,0
Carex humilis,7,6,5,2,8,3,0
Carex juncifolia (maritima),9,1,3,9=,x,2,0
Carex laevigata,4,5,1,9=,5,5,0
Carex lasiocarpa,9,4,x,9=,4,3,0
Carex leporina (ovalis),7,x,3,7~,3,3,0
Carex ligerica,9,6,5,3,2,2,0
Carex limosa,9,4,x,9=,2,2,0
Carex michelii,7,6,5,3,6,3,0
Carex microglochin,9,3,3,9,8,2,0
Carex montana,5,x,4,4,6,3,0
Carex mucronata,9,3,4,3,9,1,0
Carex muricata divulsa,6,6,3,5,5,6,0
Carex muricata muricata,7,6,3,4,x,6,0
Carex muricata spicata (contigua),7,5,3,4,6,4,0
"Carex nigra (fusca, goodenowii)",8,x,3,8~,3,2,1
Carex norvegica,8,4,4,9~,4,2,0
Carex ornithopoda,6,x,4,3,9,3,0
Carex ornithopodoides,8,1,x,6,9,3,0
Carex pallescens,7,4,3,6~,4,3,0
Carex panicea,8,x,3,8~,x,4,1
Carex paniculata,7,x,3,9,6,4,0
Carex pauciflora,9,3,5,9,1,1,0
Carex paupercula (ssp. irrigua),8,3,x,9,3,2,0
Carex pendula,5,5,2,8,6,6,0
Carex pilosa,4,6,5,5~,5,5,0
Carex pilulifera,5,x,2,5~,3,3,0
Carex praecox agg.,9,6,6,3~,x,4,0
Carex pseudobrizoides (reichenb.),6,6,4,7~,2,2,0
Carex pseudocyperus,7,6,3,9=,6,5,0
Carex pulicaris,8,4,2,9,4,2,0
Carex punctata,9,6,1,7=,7,3,1
Carex remota,3,5,3,8,x,x,0
Carex riparia,7,6,3,9=,7,4,0
Carex rostrata (inflata),9,x,x,10,3,3,0
Carex rupestris,9,2,7,4,6,2,0
Carex secalina,8,6,8,7,x,x,2
Carex sempervirens,7,x,2,4,7,3,0
Carex strigosa,3,6,1,7,7,6,0
Carex supina,7,7,7,2,7,2,0
Carex sylvatica,2,5,3,5,6,5,0
Carex tomentosa (filiformis) ,7,6,5,7~,9,x,0
Carex trinervis,9,6,1,9,3,2,x
Carex umbrosa,4,x,4,5~,6,4,0
Carex vaginata,8,3,6,9,x,2,0
Carex vesicaria,7,4,x,9=,6,5,0
Carex vulpina otrubae (vulp. var. nem.),6,6,2,8,7,6,1
Carex vulpina vulpina,9,6,5,8=,x,5,0
Carlina acaulis ssp. simplex,9,x,4,4,x,2,0
Carlina acaulis ssp. acaulis,9,4,5,4,3,2,0
Carlina vulgaris,7,5,3,4,7,3,0
Carlina vulgaris biebersteinii,7,3,4,4,7,3,0
Carpesium cernuum,5,6,4,5,7,7,0
Carpinus betulus,4,6,4,x,x,x,0
Carum carvi,8,4,5,5,x,6,1
Carum verticillatum,7,7,1,8~,4,3,0
Castanea sativa,5,8,2,x,4,x,0
Catabrosa aquatica,8,5,5,9=,7,8,1
Catapodium rigidum,9,6,3,2,7,1,0
Caucalis platycarpos (lappula),6,6,5,4,9,4,0
Centaurea calcitrapa,8,7,3,5,x,6,0
Centaurea cyanus,7,6,5,x,x,x,0
Centaurea diffusa,9,7,6,3,8,3,0
Centaurea jacea,7,x,5,x,x,x,0
Centaurea jacea ssp. angustifolia,8,7,6,4,x,2,0
Centaurea jacea ssp. pratensis,7,6,4,5,6,3,0
Centaurea jacea ssp. subjacea,8,7,3,3,8,2,0
Centaurea montana,6,4,4,5,7,6,0
Centaurea nemoralis,7,6,3,4,6,3,0
Centaurea nigra,8,4,2,5,3,4,0
Centaurea nigrescens,8,6,6,4~,6,6,0
Centaurea paniculata agg.,8,7,6,2,8,3,0
Centaurea phrygia,8,x,5,5,x,4,0
Centaurea phrygia pseudophrygia,8,4,5,5,5,4,0
Centaurea scabiosa,7,x,3,3,8,4,0
Centaurea scabiosa ssp. alpestris (C. alp.),8,2,3,5,8,3,0
Centaurea solstitialis,8,6,6,4,7,6,0
Centaurea stenolepis,6,6,5,4,8,4,0
Centaurea triumfettii,6,7,5,4,7,4,0
Centaurium erythraea (umbellatum),8,6,5,5,6,6,0
Centaurium pulchellum,9,6,7,x~,9,4,1
Centaurium littorale ssp. littorale,9,6,5,7,8,3,2
Centranthus ruber,7,8,3,6,8,5,0
Centunculus minimus,8,6,3,7~,4,3,0
Cephalanthera damasonium (alba),3,6,2,4,7,4,0
Cephalanthera longifolia,5,5,3,4,6,4,0
Cephalanthera rubra,4,5,4,3,8,4,0
Cerastium alpinum,9,1,2,4,6,2,0
Cerastium arvense,8,x,5,4,6,4,0
Cerastium arvense ssp. strictum,9,3,6,3,x,2,0
Cerastium brachypetalum,9,7,4,3,8,2,0
Cerastium cerastoides,8,1,x,8,4,7,0
Cerastium diffusum (tetrandrum),8,6,2,4,4,2,0
Cerastium dubium (anomalum),9,6,6,8=,7,5,2
Cerastium fontanum fontanum,6,3,4,5,5,5,0
Cerastium fontanum holosteoides (caesp.),6,x,x,5,x,5,1
Cerastium glomeratum,7,5,3,5,5,5,0
Cerastium latifolium,9,1,4,5,9,3,0
Cerastium pedunculatum,9,2,4,5,3,3,0
Cerastium pumilum agg.,8,7,4,2,8,2,0
Cerastium semidecandrum,8,6,3,3,6,x,0
Cerastium uniflorum,9,1,4,5,x,3,0
Ceratocephalus falcatus,8,9,8,4,x,4,0
Ceratophyllum demersum,6,7,x,12~,8,8,0
Ceratophyllum submersum,5,8,5,12,8,7,0
Cerinthe glabra ssp. glabra,7,x,4,5,8,9,0
Cerinthe minor,8,6,5,4,8,4,0
Ceterach officinarum,8,9,3,3,8,2,0
Chaenarrhinum minus (Linaria minor),8,6,3,4,8,5,0
Chaerophyllum aromaticum,7,5,5,7,6,8,0
Chaerophyllum aureum,6,5,4,5,9,9,0
Chaerophyllum bulbosum,7,6,5,7,8,8,0
Chaerophyllum hirsutum,6,3,4,8,x,7,0
Chaerophyllum temulum,5,6,3,5,x,8,0
Chaerophyllum villarsii,8,3,4,6,6,8,0
Chamaecytisus ratisbonensis,6,7,6,4,x,2,0
Chamaecytisus supinus,7,6,4,3,x,1,0
Chamaedaphne calyculata,7,3,7,8,3,2,0
Chamaespartium sagittale,8,5,4,4,4,2,0
Chamorchis alpina,9,2,2,4,9,2,0
Chelidonium majus,6,6,x,5,x,8,0
Chenopodium album album,x,x,x,4,x,7,0
Chenopodium album opulifolium,8,7,3,4,7,6,0
Chenopodium album strictum,9,7,7,4,x,6,0
Chenopodium album suecicum (viride),8,6,6,4,6,7,0
Chenopodium bonus,8,x,2,5,x,9,0
Chenopodium botrys,8,7,2,4,7,6,0
Chenopodium ficifolium (serotinum),7,7,7,6,x,7,0
Chenopodium foliosum,8,x,8,4,7,8,0
Chenopodium glaucum,8,6,7,6,x,9,3
Chenopodium hybridum,7,6,7,5,8,8,0
Chenopodium murale ,8,7,6,4,8,9,0
Chenopodium polyspermum,6,6,4,6,x,8,0
Chenopodium pumilio,9,7,x,4,7,8,0
Chenopodium rubrum,8,x,x,6,x,9,1
Chenopodium rubrum botryoides,8,6,7,7,7,9,1
Chenopodium urbicum,7,7,7,4,7,7,0
Chenopodium vulvaria,7,7,4,4,7,9,0
Chimaphila umbellata,4,6,6,4,6,3,0
Chondrilla chondrilloides (prenanth.),9,4,4,5=,9,2,0
Chondrilla juncea,8,7,5,3,6,x,0
Chrysanthemum segetum,7,6,2,5,5,5,0
Chrysosplenium alternifolium,4,4,5,8=,7,5,0
Chrysosplenium oppositifolium,6,5,2,9=,5,5,0
Cicendia filiformis,9,7,2,8=,3,2,1
Cicerbita alpina,6,3,2,6,6,8,0
Cicerbita plumieri,5,3,1,5,6,7,0
Cichorium intybus,9,6,5,4,8,5,0
Cicuta virosa,7,6,7,9=,5,5,0
Circaea alpina,4,4,4,7,5,5,0
Circaea intermedia,4,5,2,7,7,6,0
Circaea lutetiana,4,5,3,6,7,7,0
Cirsium acaule,9,5,4,3,8,2,0
Cirsium arvense,8,5,x,x,x,7,1
Cirsium canum,8,7,6,8~,7,x,0
Cirsium dissectum (anglicum),7,7,1,8,4,2,0
Cirsium eriophorum,8,x,3,4,9,5,0
Cirsium erisithales,6,5,5,5~,8,2,0
Cirsium heterophyllum (helenioides),7,4,5,8,5,6,0
Cirsium oleraceum,6,x,3,7,7,5,0
Cirsium palustre,7,5,3,8,4,3,0
Cirsium rivulare,9,5,4,7~,8,5,0
Cirsium spinosissimum,7,2,5,6,7,8,0
Cirsium tuberosum,7,6,2,6~,8,3,0
Cirsium vulgare (lanceolatum),8,5,3,5,7,8,0
Cladium mariscus,9,6,3,10,9,3,0
Claytonia perfoliata,6,6,4,5,7,7,0
Clematis alpina,4,3,7,5,3,3,0
Clematis recta,6,7,5,3~,8,3,0
Clematis vitalba,7,6,3,5,7,7,0
Clinopodium vulgare (Calamintha cl.),7,x,3,4,7,3,0
Cnicus benedictus,8,8,3,4,7,6,0
Cnidium dubium,7,7,6,8~,6,x,0
Cochlearia anglica,8,5,1,8=,7,7,8
Cochlearia danica,9,6,3,8=,8,5,4
Cochlearia officinalis agg.,8,6,x,7=,7,6,2
Cochlearia pyrenaica ssp. pyrenaica,8,4,4,9=,8,3,0
Coeloglossum viride,8,x,x,4,4,2,0
Colchicum autumnale,6,5,2,6~,7,x,0
Coleanthus subtilis,9,7,5,8=,3,2,0
Collomia grandiflora,6,7,3,4,7,3,0
Colutea arborescens,5,8,3,3,8,2,0
Conium maculatum,8,6,5,6~,x,8,0
Conopodium majus,8,4,2,5,4,4,0
Conringia orientalis,7,6,5,3,9,4,0
Consolida regalis ssp. regalis,6,7,6,4,8,5,0
Convallaria majalis,5,x,3,4,x,4,0
Convolvulus arvensis,7,6,x,4,7,x,0
Conyza canadensis,8,6,x,4,x,5,0
Corallorhiza trifida,x,4,7,5,3,x,0
Corispermum hyssopifolium (leptoterum),8,7,5,3,7,6,0
Corispermum marschallii,9,6,6,4,8,5,0
Cornus mas,6,7,4,4,8,4,0
Cornus sanguinea,7,5,4,5,7,x,0
Cornus suecica,5,4,3,7,2,2,0
Coronilla coronata,7,6,4,3~,9,3,0
Coronilla emerus,7,6,4,3,9,2,0
Coronilla vaginalis,6,x,4,3,9,2,0
Coronilla varia,7,6,5,4,9,3,0
Coronopus didymus,9,7,4,5,6,6,0
Coronopus squamatus (procumbens),8,7,3,6~,7,6,1
Corrigiola litoralis,8,6,2,7,5,5,0
Cortusa matthioli,5,3,5,6,6,7,0
Corydalis cava,3,6,4,6,8,8,0
Corydalis claviculata,5,6,1,5,3,6,0
Corydalis intermedia,3,4,4,5,7,7,0
Corydalis lutea,6,7,4,6,9,5,0
Corydalis solida,3,6,5,5,7,7,0
Corylus avellana,6,5,3,x,x,5,0
Corynephorus canescens,8,6,5,2,3,2,0
Cotinus coggygria,7,8,4,3,7,3,0
Cotoneaster integerrimus,8,x,4,3,7,2,0
Cotoneaster tomentosus,7,5,4,3,9,2,0
Cotula coronopifolia,9,6,x,7,7,7,5
Crambe maritima,9,6,x,6=,7,8,3
Crassula aquatica,8,6,3,7~,x,2,0
Crassula tillaea,8,7,2,7,x,3,0
Crataegus laevigata agg.,6,6,4,5,7,5,0
Crataegus monogyna agg.,7,5,3,4,8,4,0
Crepis alpestris,7,4,4,4,8,2,0
Crepis aurea,8,2,4,5,5,7,0
Crepis biennis,7,5,3,6,6,5,0
Crepis capillaris,7,6,2,5,6,4,0
Crepis conyzifolia ,9,3,4,5~,2,2,0
Crepis foetida,9,7,3,4,7,3,0
Crepis kerneri (jaquinii ssp.),9,2,4,5,9,3,0
Crepis mollis,8,4,5,5~,5,5,0
Crepis nicaeensis,8,6,4,4,7,6,1
Crepis paludosa,7,x,3,8~,8,6,0
Crepis pontana (bocconi),8,2,4,5,8,5,0
Crepis praemorsa,6,7,6,3~,9,3,0
Crepis pulchra ssp. pulchra,7,8,3,4,8,6,0
Crepis pyrenaica (blattarioides),7,3,4,5,7,6,0
Crepis rhaetica,9,1,3,7,8,3,0
Crepis setosa,9,7,4,4,7,3,0
Crepis taraxacifolia,9,6,3,4,8,5,0
Crepis tectorum,8,6,7,4,x,6,0
Crepis terglouensis,9,1,4,5,9,3,0
Crocus albiflorus,7,3,4,5,5,x,0
Cruciata glabra (vernum),7,6,4,5,7,5,0
Cruciata laevipes (cruciata),7,5,5,6,6,7,0
Cryptogramma crispa,8,3,3,5,3,2,0
Cucubalus baccifer,6,6,4,9=,8,7,0
Cuscuta australis,x,7,x,x,x,x,0
Cuscuta campestris,x,7,x,x,x,x,0
Cuscuta epilinum,x,6,4,x,x,x,0
Cuscuta epithymum,x,x,5,x,x,2,0
Cuscuta europaea,x,6,5,7,x,7,0
Cuscuta gronovii,x,6,x,8,x,8,0
Cuscuta lupuliformis,x,6,6,8,8,0,Tvp
Cuscuta suaveolens,x,6,x,x,x,x,0
Cyclamen purpurascens,4,6,4,5,9,5,0
Cydonia oblonga,8,6,3,4,8,4,0
Cymbalaria muralis,7,7,4,6,8,5,0
Cynodon dactylon,8,7,3,4,x,5,0
Cynoglossum germanicum,6,6,4,5,8,8,0
Cynoglossum officinale,8,6,5,4,7,7,0
Cynosurus cristatus,8,5,3,5,x,4,0
Cyperus badius,8,7,3,8,x,x,0
Cyperus flavescens,9,6,4,7=,x,4,0
Cyperus fuscus,9,6,4,7=,x,4,0
Cyperus longus,8,8,3,9=,x,5,0
Cyperus michelianus,9,6,4,8=,7,6,0
Cypripedium calceolus,5,5,5,4~,8,4,0
Cystopteris dickieana,5,2,4,7,9,2,0
Cystopteris fragilis,5,x,3,7,8,4,0
Cystopteris montana,4,x,4,7,9,2,0
Cystopteris regia,6,3,3,7,8,3,0
Cystopteris sudetica,5,4,7,5,9,2,0
Cytisus scoparius,8,5,2,4,3,4,0
Dactylis glomerata,7,x,3,5,x,6,0
Dactylis polygama,5,6,4,5,6,5,0
Dactylorhiza incarnata (Orchis inc.),8,5,3,8~,7,2,0
Dactylorhiza incarnata ssp. ochroleuca,8,4,3,8~,7,2,0
Dactylorhiza maculata,7,x,2,8~,x,2,0
Dactylorhiza maculata ssp. elodes,8,6,2,8~,2,2,0
Dactylorhiza majalis (O. latifolia),8,5,3,8~,7,3,0
Dactylorhiza majalis ssp. alpestris,8,3,3,9,3,1,0
Dactylorhiza praetermissa,9,5,x,9,8,2,0
Dactylorhiza sambucina,7,5,4,4,5,2,0
Dactylorhiza sphagnicola,9,5,x,8,3,1,0
Dactylorhiza traunsteineri,8,4,4,9=,4,2,0
Danthonia alpina,9,6,5,3,x,2,0
Danthonia decumbens (Sieglingia d.),8,x,2,x,3,2,0
Daphne alpina,8,4,5,4,8,3,0
Daphne cneorum,6,5,4,4,8,2,0
Daphne laureola,4,7,2,4,8,4,0
Daphne mezereum,4,x,4,5,7,5,0
Daphne striata,7,3,4,4,8,2,0
Datura stramonium,8,6,x,4,7,8,1
Daucus carota,8,6,5,4,x,4,0
Dentaria bulbifera (Cardamine b.),3,5,4,5,7,6,0
Dentaria enneaphyllos,4,4,4,5,7,7,0
Dentaria heptaphyllos (pinnata),3,5,2,5,8,6,0
Dentaria pentaphyllos (digitata),3,5,2,5,7,6,0
Deschampsia cespitosa,6,x,x,7~,x,3,0
Deschampsia flexuosa,6,x,2,x,2,3,0
Deschampsia litoralis,8,6,4,10,7,2,0
Deschampsia media,8,7,2,8=,7,4,0
Deschampsia setacea,8,6,1,9=,2,1,0
Deschampsia wibeliana,8,6,2,9=,8,4,2
Descurainia sophia (Sisymbrium sophia),8,6,7,4,x,6,0
Dianthus armeria ssp. armeria,6,6,3,5,x,3,0
Dianthus carthusianorum,8,5,4,3,7,2,0
Dianthus deltoides,8,5,4,3,3,2,0
Dianthus gratianopolitanus (caesius),9,7,4,2,7,1,0
Dianthus seguieri (sylvaticus),7,6,4,4~,3,2,0
Dianthus sylvestris ssp. sylvestris,6,6,4,4,4,2,0
Dianthus superbus ssp. superbus,7,6,7,8~,8,2,0
Dianthus superbus ssp. alpestris,8,2,7,5~,7,4,0
Dictamnus albus,7,8,4,3,8,2,0
Digitalis grandiflora,7,4,4,5,5,5,0
Digitalis lutea,7,6,2,5,7,5,0
Digitalis purpurea,7,5,2,5,3,6,0
Digitaria ischaemum,7,6,4,5,2,3,0
Digitaria sanguinalis,7,7,3,4,5,5,0
Diphasium alpinum ,8,3,3,5,2,2,0
Diphasium complanatum (anceps),6,4,7,4,1,2,0
Diphasium issleri,9,5,5,5,1,1,0
Diphasium tristachyum (chamaecyp.),8,6,5,5~,1,1,0
Diphasium zeilleri,7,6,x,4,1,2,0
Diplotaxis muralis,8,8,3,4,8,5,0
Diplotaxis tenuifolia,8,7,3,3,x,6,0
Diplotaxis viminea,7,8,2,5,8,6,0
Dipsacus fullonum (sylvestris),9,6,3,6~,8,7,0
Dipsacus laciniatus,7,7,5,6,8,6,0
Dipsacus pilosus (Cephalaria pilosa),7,6,5,6~,8,7,0
Dipsacus strigosus,8,6,7,5,8,5,0
Doronicum austriacum,5,3,4,6,7,7,0
Doronicum columnae (cordatum),8,2,4,6,8,7,0
Doronicum glaciale,8,1,4,6,7,3,0
Doronicum grandiflorum,8,2,4,5,9,3,0
Doronicum pardalianches,4,6,2,5,7,6,0
Dorycnium germanicum,7,6,4,2,9,1,0
Dorycnium herbaceum,7,6,4,3,9,3,0
Draba aizoides,8,x,4,3,9,1,0
Draba dubia (frigida),8,2,5,3,x,2,0
Draba fladnizensis,9,2,7,5,6,2,0
Draba hoppeana,8,1,5,5,7,2,0
Draba ladina,8,2,7,4,9,2,0
Draba muralis,7,6,2,5,8,6,0
Draba sauteri,6,2,4,5,9,2,0
Draba siliquosa (carinthiaca),8,2,4,5,6,2,0
Draba tomentosa,9,1,4,2,9,2,0
Dracocephalum ruyschiana,6,5,8,4,7,2,0
Drosera anglica,8,4,3,9=,3,2,0
Drosera intermedia,9,5,2,9=,2,2,0
Drosera x obovata,8,4,3,9,2,2,0
Drosera rotundifolia,8,4,3,9,1,1,0
Dryas octopetala,9,2,7,4,8,4,0
Dryopteris affinis (pseudomas),3,5,2,6,5,6,0
Dryopteris carthusiana (spinulosa),5,x,3,x,4,3,0
Dryopteris cristata,4,6,4,9,5,6,0
Dryopteris dilatata (austriaca),4,x,3,6,x,7,0
Dryopteris expansa,4,3,x,6,2,2,0
Dryopteris filix mas,3,x,3,5,5,6,0
Dryopteris remota,3,4,x,6,4,5,0
Dryopteris villarii (rigida),9,2,2,5,9,3,0
Ecballium elaterium,8,9,x,5,8,7,0
Echinochloa crusgalli,6,7,5,5,x,8,0
Echinocystis lobata,7,8,x,9=,8,8,0
Echinops sphaerocephalus,8,7,6,4,8,7,0
Echium vulgare,9,6,3,4,8,4,0
Elatine alsinastrum,8,7,5,9=,5,4,0
Elatine hexandra,8,6,2,9=,3,2,0
Elatine hydropiper,8,6,4,8=,2,3,x
Elatine triandra,8,6,4,9=,4,4,0
Eleocharis acicularis,7,6,3,10,x,2,0
Eleocharis mamillata,8,5,x,10,4,3,0
Eleocharis multicaulis,8,6,1,10,x,2,1
Eleocharis ovata (soloniensis),8,6,4,8=,x,5,0
Eleocharis palustris (Scirpus palustris),8,x,x,10,x,x,0
Eleocharis parvula,7,6,5,10,7,5,1
Eleocharis quinqueflora (pauciflora),8,x,3,9,7,2,1
Eleocharis uniglumis,7,5,x,10=,7,5,5
Elodea canadensis,7,6,5,12,7,7,0
Elodea nuttallii,7,6,3,12,x,7,0
Elymus arenarius,9,6,x,6=,7,6,1
Elyna myosuroides,9,2,7,4,x,2,0
Empetrum hermaphroditum,8,3,x,6,4,2,0
Empetrum nigrum,7,x,3,6,x,2,0
Epilobium adenocaulon,7,6,x,5,7,8,0
Epilobium alpestre,7,3,4,6,7,8,0
Epilobium alsinifolium,8,2,2,9,6,5,0
Epilobium anagallidifolium (alpinum),8,2,3,7,5,4,0
Epilobium angustifolium,8,x,5,5,5,8,0
Epilobium collinum,8,4,5,5,2,2,0
Epilobium dodonaei,9,x,5,4,9,2,0
Epilobium fleischeri,9,4,5,4~,x,2,0
Epilobium hirsutum,7,5,5,8=,8,8,1
Epilobium lanceolatum,8,7,3,4,3,3,0
Epilobium montanum,4,x,3,5,6,6,0
Epilobium nutans,9,3,4,9,3,3,0
Epilobium obscurum,7,5,2,8,4,4,0
Epilobium palustre,7,5,x,9,3,2,0
Epilobium parviflorum,7,5,3,9=,8,6,0
Epilobium roseum,7,6,4,9=,8,8,0
Epilobium tetragonum ssp. tetragonum,7,6,4,8,6,5,0
Epilobium tetragonum ssp. lamyi,7,6,2,5,7,6,0
Epipactis atrorubens,6,x,3,3,8,2,0
Epipactis helleborine (latifolia),3,5,3,5,7,5,0
Epipactis leptochila,3,6,3,4,9,4,0
Epipactis microphylla,2,6,4,5,8,4,0
Epipactis muelleri,7,7,2,3,8,3,0
Epipactis palustris,8,5,3,9~,8,2,0
Epipactis purpurata (sessiliflora),2,6,4,6,8,6,0
Epipogium aphyllum,2,4,6,5,7,4,0
Equisetum arvense,6,x,x,x~,x,3,0
Equisetum fluviatile (limosum),8,4,x,10,x,5,0
Equisetum hyemale,5,5,5,7~,7,6,0
Equisetum x moorei,7,7,6,7~,7,4,0
Equisetum palustre,7,x,5,8,x,3,0
Equisetum pratense,5,4,7,6,7,2,0
Equisetum ramosissimum,8,7,7,4~,8,1,0
Equisetum sylvaticum,3,4,x,7,5,4,0
Equisetum telmateia (maximum),5,6,2,8,8,5,0
Equisetum trachyodon,8,7,4,7~,8,1,0
Equisetum variegatum,8,3,7,9,8,2,0
Eragrostis megastachya (cilianensis),7,7,x,3,8,3,0
Eragrostis minor,8,7,5,3,x,4,0
Eragrostis pilosa,8,7,3,3,x,x,0
Erica cinerea,7,6,1,5,2,1,0
Erica herbacea (carnea),7,x,3,3,x,2,0
Erica tetralix,8,5,1,8,1,2,0
Erigeron acris,9,5,7,4,8,2,0
Erigeron acris ssp. angulosus,9,4,x,4=,9,x,0
Erigeron alpinus,8,1,5,5,x,3,0
Erigeron annuus (Stenactis annua),7,6,x,6,x,8,0
Erigeron atticus,9,2,4,5,6,4,0
Erigeron gaudinii (glandulosus),7,2,4,4,4,x,0
Erigeron neglectus,9,2,4,5,9,x,0
Erigeron polymorphus (glabratus),9,2,4,5,9,3,0
Erigeron uniflorus,9,1,6,5,5,2,0
Eriophorum angustifolium,8,x,x,9=,4,2,0
Eriophorum gracile,8,4,5,9=,4,2,0
Eriophorum latifolium,8,x,3,9,8,2,0
Eriophorum scheuchzeri,9,2,x,9=,4,2,0
Eriophorum vaginatum,7,x,x,9~,2,1,0
Eritrichum nanum,8,2,7,4,2,2,0
Erodium ciconium,8,8,x,3,8,5,0
Erodium cicutarium ballii,8,6,4,4,5,4,0
Erodium cicutarium cicutarium,8,6,5,4,x,x,0
Erodium cicutarium lebelii (glutinosum),8,6,x,4,7,2,0
Erodium moschatum,8,7,x,4,7,4,0
Erophila verna praecox,8,6,7,2,8,1,0
Erophila verna spathulata,8,6,8,3,9,2,0
Erophila verna verna,8,6,3,x,x,2,0
Eruca sativa (vesicaria),8,6,3,4,7,6,0
Erucastrum gallicum (pollichii),8,6,4,4,8,4,0
Erucastrum nasturtiifolium (obtusang.),8,6,2,6=,8,3,0
Eryngium campestre,9,7,5,3,8,3,0
Eryngium maritimum,9,6,3,4,7,4,x
Erysimum cheiranthoides,7,5,x,5,7,7,0
Erysimum cheiri (Cheiranthus),8,8,4,5,9,6,0
Erysimum crepidifolium,9,7,5,2,7,1,0
Erysimum hieraciifolium (strictum),6,6,7,5,9,8,0
Erysimum marschallianum (durum),9,6,7,4,7,5,0
Erysimum odoratum (pannonicum),9,7,5,2,8,2,0
Erysimum repandum,7,7,6,4,8,5,2
Erysimum rhaeticum (helveticum),9,4,5,4,4,2,0
Euonymus europaea,6,5,3,5,8,5,0
Euonymus latifolia,4,6,4,5,8,5,0
Euonymus verrucosa,5,6,8,4,7,3,0
Eupatorium cannabinum,7,5,3,7,7,8,0
Euphorbia amygdaloides,4,5,3,5,8,5,0
Euphorbia chamaesyce,8,8,3,3,8,4,0
Euphorbia cyparissias,8,x,4,3,x,3,0
Euphorbia dulcis,4,5,2,5,8,5,0
Euphorbia esula,8,6,5,4,8,x,0
Euphorbia exigua,6,6,4,4,8,4,0
Euphorbia falcata,7,7,3,4,8,5,0
Euphorbia helioscopia,6,x,3,5,7,7,0
Euphorbia humifusa,9,7,5,4,7,5,0
Euphorbia lucida,7,6,6,7~,7,5,0
Euphorbia maculata,9,8,x,4,7,5,0
Euphorbia palustris,8,6,6,8~,8,x,1
Euphorbia peplus,6,6,3,4,x,7,0
Euphorbia platyphyllos ssp. platyph.,6,7,4,5,7,5,0
Euphorbia polychroma (epithymoides),6,7,5,3,8,2,0
Euphorbia salicifolia,7,7,6,4,8,3,0
Euphorbia seguierana,9,7,6,2,8,1,0
Euphorbia stricta (serrulatula),5,6,4,6,8,7,0
Euphorbia verrucosa (brittingeri),8,6,2,3,9,3,0
Euphorbia villosa,8,7,x,7,x,3,0
Euphorbia virgata,9,6,6,4~,8,4,0
Euphrasia cuspidata,8,2,3,5,9,x,0
Euphrasia drosocalix,8,3,3,5,2,2,0
Euphrasia frigida,7,3,3,5,3,2,0
Euphrasia hirtella,8,3,3,5,4,2,0
Euphrasia kerneri,7,5,3,8~,8,2,0
Euphrasia micrantha (gracilis),7,5,2,5,2,1,0
Euphrasia minima,7,2,x,5,2,3,0
Euphrasia nemorosa (nitidula),8,5,3,5,4,1,0
Euphrasia picta,6,2,3,6,6,4,0
Euphrasia rostkoviana,6,x,3,x,x,4,0
Euphrasia salisburgensis,7,3,2,5,8,4,0
Euphrasia stricta (ericetorum) agg.,8,x,4,4,x,2,0
Fagus sylvatica,(3),5,2,5,x,x,0
Falcaria vulgaris ,7,7,6,3,9,x,0
Fallopia convolvulus,7,6,x,5,x,6,0
Fallopia dumetorum,6,6,4,5,x,7,0
Festuca alpina,8,1,2,3,9,1,0
Festuca altissima (sylvatica),3,5,3,5,4,6,0
Festuca amethystina,6,5,4,3~,8,2,0
Festuca arundinacea ssp. arundinacea,8,5,x,7~,7,5,2
Festuca gigantea,4,5,3,7,6,6,0
Festuca halleri,9,1,7,4,1,1,0
Festuca halleri ssp. stenantha,8,4,7,3,9,1,0
Festuca heterophylla,5,6,4,4,5,5,0
Festuca nigricans (puccinellii),8,2,4,5,7,6,0
Festuca norica,8,2,4,5,9,3,0
Festuca ovina cinerea,9,7,4,2,x,1,0
Festuca ovina ovina (vulgaris),7,x,3,x,3,1,0b
Festuca ovina pallens,9,7,4,2,8,1,0
Festuca ovina polesica (caesia),9,7,6,3,7,2,0
Festuca ovina pseudovina,8,8,6,3,8,3,1
Festuca ovina rupicola ssp. rup. (sulcata),9,7,7,3,8,2,0
Festuca ovina supina (airoides),8,2,2,5,2,1,0
Festuca ovina tenuifolia,7,6,2,4,3,2,0
Festuca ovina trachyphylla,8,6,6,3,x,2,0
Festuca ovina valesiaca,8,7,7,2,7,2,0
Festuca pratensis,8,x,3,6,x,6,0
Festuca pratensis ssp. apennina,8,3,3,6,7,7,0
Festuca pulchella,8,2,4,5,7,4,0
Festuca pumila (quadriflora),8,2,3,5~,6,4,0
Festuca rubra ssp. arenaria,8,6,5,4,5,3,1
Festuca rubra ssp. litoralis,8,6,4,6=,7,5,7
Festuca rubra ssp. rubra,x,x,5,6,6,x,0
Festuca rubra nigrescens (ssp. commut.),7,x,4,x,3,2,0
Festuca rubra trichophylla,8,7,x,7,7,2,0
Festuca rupicaprina,8,1,4,5,8,2,0
Festuca varia,9,3,5,3,3,2,0
Filago arvensis,8,7,5,3,4,2,0
Filago gallica,9,8,2,2,6,1,0
Filago minima,9,6,3,2,4,1,0
Filago neglecta,7,8,3,6,4,4,0
Filago vulgaris lutescens,9,7,2,3,4,2,0
Filago vulgaris pyramidata (spathulata),9,8,5,2,4,1,0
Filago vulgaris vulgaris,8,7,3,3,x,2,0
Filipendula ulmaria,7,5,x,8,x,5,0
Filipendula vulgaris (hexapetala),7,6,5,3~,8,2,0
Fragaria moschata,6,6,4,5,6,6,0
Fragaria vesca,7,x,5,5,x,6,0
Fragaria viridis,7,5,5,3,8,3,0
Frangula alnus,6,6,5,8~,4,x,0
Fraxinus excelsior,4,5,3,x,7,7,0
Fraxinus ornus,5,8,4,3,8,3,0
Fritillaria meleagris,8,7,4,8=,7,5,0
Fumana procumbens,9,7,3,2,9,1,0
Fumaria capreolata,6,6,2,5,4,7,0
Fumaria muralis,7,7,1,5,4,6,0
Fumaria officinalis,6,6,3,5,6,7,0
Fumaria parviflora agg.,6,6,5,4,8,5,0
Fumaria schleicheri,7,7,6,4,8,7,0
Gagea bohemica,9,8,5,2,5,2,0
Gagea fistulosa,7,3,4,5,6,7,0
Gagea lutea (sylvatica),4,5,4,6~,7,7,0
Gagea minima,7,6,5,5,7,7,0
Gagea pratensis agg.,7,6,5,4,8,6,0
Gagea spathacea,2,6,4,6,7,7,0
Gagea villosa (arvensis),6,7,5,4,6,5,0
Galanthus nivalis,5,6,4,6,7,7,0
Galega officinalis,7,6,6,6~,7,8,0
Galeopsis angustifolia,8,7,4,2,8,4,0
Galeopsis bifida,7,5,5,5,6,6,0
Galeopsis ladanum,8,5,5,4,8,3,0
Galeopsis pubescens,7,5,4,5,x,6,0
Galeopsis segetum (dubia),7,6,2,4,3,3,0
Galeopsis speciosa,7,x,6,5,x,8,0
Galeopsis tetrahit,7,x,3,5,x,6,0
Galinsoga ciliata (quadriradiata),7,6,4,4,6,7,0
Galinsoga parviflora,7,6,3,5,5,8,0
Galium aparine aparine,7,6,3,x,6,8,0
Galium aparine spurium,7,x,5,5,8,5,0
Galium boreale,6,6,7,6~,8,2,0
Galium glaucum (Asperula glauca),8,7,6,2,9,2,0
Galium harcynicum (saxatile),7,5,2,5,2,3,0
Galium megalospermum (rupicola),8,2,4,5,9,3,0
Galium mollugo album ssp. album,7,x,3,5,7,5,0
Galium mollugo lucidum,7,6,4,3,8,2,0
Galium mollugo mollugo (elatum),7,6,3,4,7,x,0
Galium mollugo truniacum ,8,2,4,5,9,x,0
Galium noricum (baldense agg.),8,2,4,6,7,3,0
Galium odoratum (Asperula odorata),2,5,2,5,6,5,0
Galium palustre palustre,6,5,3,9=,x,4,0
Galium parisiense,8,7,3,3,5,2,0
Galium pusillum pumilum (sylvestre),7,5,2,4~,4,2,0
Galium pusillum sterneri,9,5,2,4,5,1,0
Galium pusillum sudeticum,7,5,4,4,4,x,0
Galium pusillum valdepilosum,8,6,x,4,6,3,0
Galium rotundifolium (scabrum),2,5,2,5,5,4,0
Galium sylvaticum aristatum,5,x,4,5,6,4,0
Galium sylvaticum sylvaticum,5,5,4,5,6,5,0
Galium tricornutum,7,7,3,3,8,3,0
Galium uliginosum,6,5,x,8~,x,2,0
Galium verum agg. (Cruciata glabra),7,6,x,4~,7,3,0
Gaudinia fragilis,8,6,3,5~,x,7,0
Genista anglica,8,5,1,5,2,2,0
Genista germanica,7,5,4,4,2,2,0
Genista pilosa,7,5,4,x,2,1,0
Genista tinctoria,8,6,3,6~,6,1,0
Gentiana acaulis (kochiana),8,2,4,5,2,2,0
Gentiana asclepiadea,7,x,4,6~,7,2,0
Gentiana bavarica,8,2,4,6,8,2,0
Gentiana clusii,9,3,4,5,9,3,0
Gentiana crutiata,7,6,4,3,8,3,0
Gentiana lutea,7,3,4,5~,x,2,0
Gentiana nivalis,9,1,2,5,7,3,0
Gentiana orbicularis (favrati),8,1,4,5,8,3,0
Gentiana pannonica,7,3,4,5,1,2,0
Gentiana pneumonanthe,8,5,3,7,x,1,0
Gentiana punctata,8,2,4,5,2,2,0
Gentiana purpurea,7,3,4,5,3,2,0
Gentiana utriculosa,8,x,4,9~,9,2,0
Gentiana verna,8,x,4,4,7,2,0
Gentianella aspera,8,3,4,4,9,2,0
Gentianella baltica,8,6,4,6~,7,x,0
Gentianella bohemica,8,4,4,4,5,2,0
Gentianella campestris,8,x,2,5,4,2,0
Gentianella ciliata,7,x,4,3,8,2,0
Gentianella germanica,7,5,4,4~,8,3,0
Gentianella tenella,9,1,7,5,7,2,0
Gentianella uliginosa,8,6,2,6~,7,2,0
Geranium columbinum,7,6,4,4,7,7,0
Geranium dissectum,6,6,3,5,8,5,0
Geranium lucidum,5,7,2,5,7,8,0
Geranium molle,7,6,3,4,5,4,0
Geranium palustre,8,5,4,7~,8,7,0
Geranium phaeum,6,x,4,5,6,5,0
Geranium pratense,8,6,5,5,8,7,0
Geranium pusillum,7,6,5,4,x,7,0
Geranium pyrenaicum,8,6,4,5,7,8,0
Geranium robertianum,5,x,3,x,x,7,0
Geranium rotundifolium,7,8,5,4,7,6,0
Geranium sanguineum,7,6,4,3,8,3,0
Geranium sylvaticum,6,4,4,6,6,7,0
Geum montanum (Sieversia mont.),7,2,2,5,2,2,0
Geum reptans (Sieversia reptans),9,1,4,5,2,2,0
Geum rivale,6,x,5,8~,x,4,0
Geum urbanum,4,5,5,5,x,7,0
Gladiolus palustris,8,6,4,6~,8,2,0
Glaucium corniculatum,7,7,6,4,9,4,0
Glaucium flavum,9,6,6,6,8,7,2
Glaux maritima,6,6,x,7=,7,5,7
Glechoma hederacea,6,6,3,6,x,7,0
Globularia cordifolia,9,3,4,4,9,2,0
Globularia nudicaulis,7,2,2,4,8,3,0
Globularia punctata (elongata),8,6,5,2,9,2,0
Glyceria declinata,5,6,2,8~,6,5,0
Glyceria fluitans,7,x,3,9=,x,7,0
Glyceria maxima (aquatica),9,5,x,10,8,9,0
Glyceria nemoralis,7,6,6,9=,8,7,0
Glyceria plicata,8,5,3,10~,8,8,0
Glyceria striata,7,6,x,7,7,6,0
Gnaphalium hoppeanum,8,2,4,7,8,4,0
Gnaphalium luteo,7,6,5,7~,5,3,0
Gnaphalium norvegicum,7,3,3,5,4,4,0
Gnaphalium supinum,7,2,3,7~,3,4,0
Gnaphalium sylvaticum,8,x,3,5,4,6,0
Gnaphalium uliginosum,7,6,4,7,4,4,0
Goodyera repens,5,x,7,4,x,2,0
Gratiola officinalis,7,7,5,8~,7,4,1
Groenlandia densa (Potamogeton densus),8,6,2,12,8,5,0
Gymnadenia conopsea,7,x,2,7~,8,3,0
Gymnadenia odoratissima,6,x,4,4~,9,2,0
Gymnocarpium dryopteris (Dryopt. linneana),3,4,5,6,4,5,0
Gymnocarpium robertianum (D. robertiana),7,4,5,5,8,3,0
Gypsophila fastigiata ,8,8,5,2,6,1,0
Gypsophila muralis,8,6,5,8=,3,3,0
Gypsophila repens,9,x,4,5=,9,2,0
Halimione pedunculata,9,6,x,8=,7,8,7
Halimione portulacoides,9,6,x,7=,x,7,8
Hammarbya paludosa (Malaxis paludosa),9,5,3,9=,2,2,0
Hedera helix,(4),5,2,5,x,x,0
Hedysarum hedysaroides,8,2,7,5,8,2,0
Helianthemum alpestre agg.,9,2,4,4,9,2,0
Helianthemum apenninum,8,7,2,2,8,1,0
Helianthemum canum,8,7,4,2,9,1,0
Helianthemum nummularium grandiflorum,7,3,4,4,8,3,0
Helianthemum nummularium ssp. glabrum,8,2,4,4,9,3,0
Helianthemum nummularium nummularium,7,6,4,3,7,2,0
Helianthemum nummularium ovatum (num. obs.),8,5,4,3,9,2,0
Helianthus tuberosus,8,7,x,6,7,8,0
Helichrysum arenarium,8,6,7,2,5,1,0
Helictotrichon parlatorei,9,2,4,5,9,3,0
Heliotropium europaeum,7,8,5,4,8,6,0
Helleborus foetidus,5,7,2,4,8,3,0
Helleborus niger,3,5,4,5,8,4,0
Helleborus viridis,3,6,2,5,8,6,0
Hepatica nobilis,4,6,4,4,7,5,0
Heracleum austriacum,9,3,4,6,8,4,0
Heracleum mantegazzianum,9,6,x,6,x,8,0
Heracleum sphondylium,7,5,2,5,x,8,0
Heracleum sphondylium ssp. elegans,7,3,3,6,x,8,0
Herminium monorchis,7,5,7,5~,8,2,0
Herniaria glabra,8,6,5,3,4,2,0
Herniaria hirsuta,9,7,7,3,4,1,0
Hesperis matronalis,6,5,6,7=,7,7,0
Hieracium alpinum,8,2,3,5~,1,1,0
Hieracium ambiguum (glomeratum),7,4,5,3,4,x,0
Hieracium amplexicaule,8,4,2,3,6,x,0
Hieracium arvicola,8,6,x,5~,8,2,0
Hieracium aurantiacum,8,3,5,5~,4,2,0
Hieracium auriculoides,8,7,4,3,7,1,0
Hieracium bauhinii,9,7,4,3,7,1,0
Hieracium bifidum,8,x,3,4,8,3,0
Hieracium bifurcum,9,8,4,2,7,x,0
Hieracium bupleuroides,9,x,4,4,9,2,0
Hieracium caesium (vulgatum),9,4,3,4,8,3,0
Hieracium caespitosum (pratense),8,5,6,7~,7,3,0
Hieracium calodon,9,8,4,3,7,x,0
Hieracium cymosum,7,6,5,3,8,2,0
Hieracium dollineri,9,3,4,4,8,2,0
Hieracium echioides,8,6,6,2,6,1,0
Hieracium fallax,9,7,4,2,7,1,0
Hieracium franconicum,9,5,4,2,8,1,0
Hieracium fuscocinereum,5,5,3,5,7,5,0
Hieracium fuscum,8,4,4,5,3,2,0
Hieracium glabratum,9,2,4,4,8,x,0
Hieracium glaciale (angustifolium),8,1,4,5,1,1,0
Hieracium glanduliferum (piliferum),9,1,4,5,1,1,0
Hieracium glaucinum (praecox),5,7,3,4,3,3,0
Hieracium glaucum,9,3,4,4,9,2,0
Hieracium hoppeanum,8,3,4,5~,4,2,0
Hieracium humile,7,3,4,4,7,1,0
Hieracium intybaceum,8,3,2,4,4,2,0
Hieracium inuloides,7,3,2,5,5,3,0
Hieracium jurassicum (juranum),5,3,5,6,5,x,0
Hieracium lachenalii (vulgatum),5,5,x,4,4,2,0
Hieracium lactucella (auricula),8,x,3,6~,4,2,0
Hieracium laevigatum,7,5,3,5,2,2,0
Hieracium laschii,8,6,5,4,8,2,0
Hieracium lycopifolium,5,6,3,4,5,4,0
Hieracium maculatum,5,7,4,4,5,2,0
Hieracium morisianum (pilosum),9,2,4,5,9,2,0
Hieracium pallidum (schmidtii),8,6,2,4,2,1,0
Hieracium peletieranum,7,8,2,3,4,2,0
Hieracium picroides,8,3,3,4,4,x,0
Hieracium pilosella,7,x,3,4,x,2,0
Hieracium piloselloides agg.,9,6,4,4~,8,2,0
Hieracium prenanthoides,7,3,x,5,5,5,0
Hieracium racemosum,7,6,4,4,5,2,0
Hieracium rothianum,9,8,6,2,8,1,0
Hieracium sabaudum,5,6,3,4,4,2,0
Hieracium schultesii,8,x,x,5,4,2,0
Hieracium scorzonerifolium,9,x,4,4,9,2,0
Hieracium sphaerocephalum,8,2,4,5,4,x,0
Hieracium sylvaticum (murorum),4,x,3,5,5,4,0
Hieracium umbellatum,6,6,x,4,4,2,0
Hieracium valdepilosum,8,3,4,5,7,4,0
Hieracium villosum,9,2,4,5,9,3,0
Hieracium wiesbaurianum,7,6,3,3,8,1,0
Hierochloe australis,5,7,5,3~,8,2,0
Hierochloe hirta,8,6,x,7~,6,4,0
Hierochloe odorata (agg.),6,6,7,9,4,2,0
Himantoglossum hircinum,7,7,2,3,9,2,0
Hippocrepis comosa,7,5,2,3,7,2,0
Hippophae rhamnoides,9,6,6,4~,8,3,0
Hippuris vulgaris,7,5,x,10,8,x,0
Hirschfeldia incana ,8,6,3,3,7,5,0
Holcus lanatus,7,6,3,6,x,5,1
Holcus mollis,5,5,2,5,2,3,0
Holoschoenus romanus (vulgaris),8,6,x,8~,7,8,0
Holosteum umbellatum,8,6,5,3,x,2,0
Homogyne alpina,6,4,2,6,4,2,0
Homogyne discolor,8,1,4,7,8,5,0
Honckenya peploides,9,6,x,6=,7,7,5
Hordelymus europaeus,4,5,4,5,7,6,0
Hordeum jubatum,9,6,x,6,7,6,2
Hordeum marinum agg.,9,6,4,8=,7,5,6
Hordeum murinum agg.,8,7,x,4,7,5,0
Hordeum secalinum (nodosum),8,6,2,6,6,5,4
Horminum pyrenaicum,9,2,4,5,9,2,0
Hornungia petraea,8,7,2,2,9,1,0
Hottonia palustris,7,6,5,12,5,4,0
Humulus lupulus,7,6,3,8=,6,8,0
Huperzia selago,4,3,3,6,3,5,0
Hutchinsia alpina,8,2,2,5,9,2,0
Hydrilla verticillata,6,6,3,12,9,3,0
Hydrocharis morsus,7,6,4,11,7,6,0
Hydrocotyle vulgaris,7,5,2,9~,3,2,1
Hymenophyllum tunbrigense,5,6,1,7,3,x,0
Hyoscyamus niger,8,6,x,4,7,9,0
Hypericum x desetangsii,7,6,3,6~,7,5,0
Hypericum elegans,7,7,6,3~,9,2,0
Hypericum elodes,8,6,1,9=,2,1,0
Hypericum hirsutum,7,6,4,5,8,7,0
Hypericum humifusum,7,x,2,7,4,3,0
Hypericum maculatum,8,x,3,6~,3,2,0
Hypericum montanum,5,6,4,4,7,3,0
Hypericum perforatum,7,6,5,4,6,4,0
Hypericum pulchrum,4,6,2,5,3,2,0
Hypericum tetrapterum (acutum),7,5,2,8=,7,5,0
Hypochoeris glabra,9,7,2,3,3,1,0
Hypochoeris maculata,7,6,5,4~,6,2,0
Hypochoeris radicata,8,5,3,5,4,3,1
Hypochoeris uniflora,8,2,4,4~,4,2,0
Hyssopus officinalis,8,7,6,2,7,3,0
Iberis amara,7,7,2,4,8,3,0
Iberis intermedia,8,7,4,4,9,x,0
Ilex aquifolium,(4),5,2,5,4,5,0
Illecebrum verticillatum,8,7,2,7,3,2,0
Impatiens glandulifera,5,7,2,8=,7,7,0
Impatiens nolitangere,4,5,5,7,7,6,0
Impatiens parviflora,4,6,5,5,x,6,0
Inula britannica,8,6,5,7=,8,5,2
Inula conyza,6,6,2,4,7,3,0
Inula germanica,8,7,6,3,8,2,0
Inula graveolens,9,7,3,4,8,5,0
Inula helenium,7,7,6,5,7,5,0
Inula helvetica (vaillantii),7,8,5,8~,8,8,0
Inula hirta,7,6,6,3,8,3,0
Inula salicina,8,6,5,6~,9,3,1
Inula spiraeifolia,8,7,6,3,9,2,0
Iris aphylla,8,7,6,3,6,1,0
Iris germanica,8,8,3,3,8,2,0
Iris pseudacorus,7,6,3,9=,x,7,0
Iris sambucina,9,7,6,3,9,4,0
Iris sibirica,8,6,5,8~,6,2,0
Iris spuria,9,8,5,7,8,3,2
Iris variegata,7,7,6,3,x,x,0
Isatis tinctoria,8,7,7,3,8,3,0
Isoetes echinospora,7,3,3,12,6,1,0
Isoetes lacustris,7,4,2,12,4,1,0
Isolepis fluitans,8,6,2,10,3,2,0
Isolepis setacea,6,5,2,9,5,3,0
Iva xanthiifolia,9,7,8,4,7,6,0
Jasione laevis,9,6,1,5,3,2,0
Jasione montana,7,6,3,3,3,2,0
Jovibarba sobolifera,9,6,5,2,8,1,0
Juglans regia,6,8,2,6,7,7,0
Juncus acutiflorus (sylvaticus),9,6,2,8,5,3,0
Juncus alpino articulatus,8,x,6,9,8,2,0
Juncus ambiguus (ranarius),9,6,x,8,4,3,4
Juncus anceps,8,6,1,7,7,4,3
Juncus articulatus (lamprocarpus),8,x,3,9,x,2,1
Juncus atratus,8,7,8,9~,7,4,0
Juncus balticus,8,4,2,8,2,2,1
Juncus bufonius (agg.),7,5,x,7~,3,4,0
Juncus bulbosus (supinus),6,6,2,10,5,2,0
Juncus capitatus,8,7,3,7,4,3,0
Juncus compressus,8,5,3,8=,7,5,1
Juncus conglomeratus,8,5,3,7~,4,3,0
Juncus effusus,8,5,3,7,3,4,0
Juncus ensifolius,9,7,2,7,x,x,0
Juncus filiformis,7,4,5,9,4,3,0
Juncus gerardii,8,6,x,x=,7,x,7
Juncus inflexus (glaucus),8,5,3,7~,8,4,1
Juncus jacquinii,9,2,4,5,2,1,0
Juncus maritimus,9,7,3,7=,7,6,6
Juncus monanthus,9,2,4,5,8,2,0
Juncus pygmaeus ,9,7,1,7,4,2,0
Juncus sphaerocarpus,8,8,6,8~,8,2,0
Juncus squarrosus,8,5,2,7~,1,1,0
Juncus stygius,8,4,4,9=,4,3,0
Juncus subnodulosus (obtusiflorus),8,6,2,8,9,3,2
Juncus tenageia,8,7,2,7,5,4,0
Juncus tenuis (macer),6,6,3,6,5,5,0
Juncus trifidus,8,2,3,4,4,2,0
Juncus triglumis,8,2,7,9,6,2,0
Juniperus communis ssp. communis,8,x,x,4,x,x,0
Juniperus communis ssp. alpina (nana),9,2,7,4,7,2,0
Juniperus sabina,7,4,6,3,7,2,0
Jurinea cyanoides,7,8,6,2,7,2,0
Kalmia angustifolia,8,5,3,8,1,1,0
Kernera saxatilis,9,3,2,3,9,2,0
Kickxia elatine,7,6,2,4,7,3,0
Kickxia spuria,7,7,2,4,7,3,0
Knautia arvensis,7,6,3,4,x,4,0
Knautia dipsacifolia,5,4,4,6,6,6,0
Kobresia simpliciuscula (bipartia),9,1,7,9,8,1,0
Kochia laniflora (arenaria),9,8,7,2,8,1,0
Koeleria arenaria (albescens),9,6,1,4,5,3,0
Koeleria glauca,7,7,7,3,8,1,0
Koeleria hirsuta,9,1,7,4,3,2,0
Koeleria macrantha (gracilis),7,6,7,3,8,2,0
Koeleria pyramidata (cristata) agg.,7,6,4,4,7,2,0
Koeleria vallesiana,9,8,5,1,9,1,0
Laburnum anagyroides,7,7,3,3,8,3,0
Lactuca perennis,9,7,4,2,8,2,0
Lactuca quercina,5,7,5,4,8,3,0
Lactuca saligna,9,8,5,4,8,5,1
Lactuca serriola (scariola),9,7,7,4,x,4,0
Lactuca tatarica,9,6,8,6~,8,5,2
Lactuca viminea,6,7,5,3,7,3,0
Lactuca virosa,7,8,2,4,7,7,0
Lamiastrum flavidum,4,3,4,5,7,6,0
Lamiastrum galeobdolon,3,5,4,5,7,5,0
Lamiastrum montanum,3,4,5,6,7,6,0
Lamium album,7,x,3,5,x,9,0
Lamium amplexicaule,6,6,5,4,7,7,0
Lamium hybridum agg.,7,6,4,5,7,7,0
Lamium maculatum,5,x,4,6,7,8,0
Lamium purpureum,7,5,3,5,7,7,0
Lappula deflexa,8,x,7,4,x,8,0
Lappula squarrosa (myosotis),8,6,6,3,7,6,0
Lapsana communis,5,6,3,5,x,7,0
Larix decidua,8,x,6,4,x,3,0
Laser trilobum,7,6,4,4,9,2,0
Laserpitium halleri,8,3,7,4,3,2,0
Laserpitium latifolium,7,4,2,5~,9,3,0
Laserpitium prutenicum,7,6,5,7~,7,2,0
Laserpitium siler,7,x,2,4,9,2,0
Lathraea squamaria,3,5,3,6,7,6,0
Lathyrus aphaca,7,7,3,3,8,3,0
Lathyrus bauhinii (ensifolius),5,6,4,5~,9,2,0
Lathyrus heterophyllus,7,7,4,4,8,2,0
Lathyrus hirsutus,7,6,4,4,7,x,0
Lathyrus laevigatus (luteus),8,3,4,5,8,4,0
Lathyrus latifolius,7,8,4,4,9,3,0
Lathyrus linifolius (montanus),x,5,2,5,3,2,0
Lathyrus maritimus,8,6,4,4,7,3,1
Lathyrus niger,5,6,4,3,7,3,0
Lathyrus nissolia,7,6,4,4,7,4,0
Lathyrus palustris,8,6,x,8=,8,3,0
Lathyrus pannonicus ssp. collinus,8,7,6,3~,9,2,0
Lathyrus pratensis,7,5,x,6,7,6,0
Lathyrus sylvestris,7,6,4,4,8,2,0
Lathyrus tuberosus,7,6,6,4~,8,4,0
Lathyrus vernus,4,6,4,5,8,4,0
Lavatera thuringiaca,7,6,4,5,x,7,1
Ledum palustre,6,5,7,9,2,2,0
Leersia oryzoides,8,6,3,10,8,8,0
Legousia hybrida,7,7,2,4,7,3,0
Legousia speculum,7,7,4,4,8,3,0
Lembotropis nigricans ssp. nigr.,6,6,5,4,6,2,0
Lemna gibba,8,6,3,11,8,8,1
Lemna minor,7,5,3,11,x,6,1
Lemna trisulca,7,6,3,12,7,5,1
Leontodon autumnalis,7,x,3,5,5,5,0
Leontodon helveticus (pyrenaicus),8,3,4,5,3,2,0
Leontodon hispidus,8,x,3,5,7,6,0
Leontodon incanus,7,x,4,3,9,2,0
Leontodon montanus,8,2,4,5,9,3,0
Leontodon saxatilis (Thrincia hirta),8,6,2,6~,6,5,1
Leontopodium alpinum,8,2,5,4,8,2,0
Leonurus cardiaca ssp. cardiaca,8,6,6,5,8,9,0
Leonurus marrubiastrum,7,7,8,6,8,8,0
Lepidium campestre,7,6,3,4,8,6,0
Lepidium densiflorum,8,7,7,4,7,6,0
Lepidium graminifolium,8,8,3,3,6,5,0
Lepidium heterophyllum,8,7,1,5,6,5,0
Lepidium latifolium,9,6,8,5~,7,5,4
Lepidium neglectum ,9,7,x,3,8,4,0
Lepidium perfoliatum,8,6,8,6,6,5,2
Lepidium ruderale,9,6,7,4,x,6,0
Lepidium virginicum,8,7,x,4,6,5,0
Leucanthemum atratum (halleri),9,2,4,5,9,2,0
Leucanthemum maximum,9,4,3,4,7,3,0
Leucanthemum vulgare (leucanthem.),7,x,3,4,x,3,0
Leucojum aestivum,7,8,4,9=,7,8,0
Leucojum vernum,6,5,4,6,7,8,0
Ligusticum mutellina,7,2,4,6,5,4,0
Ligusticum mutellinoides,9,1,6,5,3,1,0
Ligustrum vulgare,7,6,3,4,8,3,0
Lilium bulbiferum,7,x,4,5,8,3,0
Lilium martagon,4,x,5,5,7,5,0
Limodorum abortivum,6,7,3,4,8,3,0
Limonium vulgare,9,6,3,7=,7,5,8
Limosella aquatica,7,6,3,8=,7,3,0
Linaria alpina,9,3,4,4,8,2,0
Linaria arvensis,6,7,2,5,7,5,0
Linaria repens (striata),7,6,1,4,4,6,0
Linaria vulgaris,8,6,5,4,7,5,0
Lindernia dubia,9,6,3,8=,7,x,0
Lindernia procumbens,9,7,5,8=,7,6,0
Linnaea borealis,5,x,5,5,2,2,0
Linum austriacum,9,7,6,3,8,2,0
Linum catharticum,7,x,3,x,7,2,1
Linum flavum,8,7,6,4~,8,3,0
Linum leonii,9,7,5,3,9,1,0
Linum perenne,7,x,6,3,8,2,0
Linum perenne ssp. montanum,9,3,4,4,9,2,0
Linum tenuifolium,9,8,4,2,9,2,0
Linum viscosum,7,x,4,4~,8,x,0
Liparis loeselii,8,6,4,9=,9,2,0
Listera cordata,3,4,3,7,2,2,0
Listera ovata,6,x,3,6~,7,7,0
Lithospermum officinale,6,6,5,5,8,5,0
Littorella uniflora,7,5,2,10,7,2,1
Lloydia serotina,9,1,7,5,5,1,0
Lobelia dortmanna,7,5,2,10,5,1,0
Loiseleuria procumbens,9,2,3,5,3,1,0
Lolium multiflorum,7,7,3,4,7,8,0
Lolium perenne,8,6,3,5,7,7,0
Lolium temulentum temulentum,7,7,3,4,8,x,0
Lolium x hybridum,8,7,3,5,7,8,0
Lomatogonium carinthiacum,8,1,5,5,7,2,0
Lonicera alpigena,3,4,4,6,8,7,0
Lonicera caerulea,5,3,7,8,2,2,0
Lonicera caprifolium,7,7,4,4,8,2,0
Lonicera etrusca,7,9,x,3,x,x,0
Lonicera nigra,3,4,4,5,5,4,0
Lonicera periclymenum,6,5,2,x,3,4,0
Lonicera xylosteum,5,6,4,5,7,6,0
Lotus corniculatus,7,x,3,4,7,3,0
Lotus tenuis,7,6,3,7~,8,4,4
Lotus uliginosus,7,5,2,8,6,4,0
Ludwigia palustris,8,7,3,9=,4,4,0
Lunaria rediviva,4,5,4,6,7,8,0
Lupinus polyphyllus,7,5,4,5,4,x,0
Luronium natans,8,6,1,11,5,3,0
Luzula alpino pilosa,7,2,x,7,4,3,0
Luzula campestris campestris (vulgaris),7,x,3,4,3,3,0
Luzula campestris multiflora,7,x,4,5~,5,3,0
Luzula campestris pallescens,7,5,5,5,3,2,0
Luzula desvauxii,7,4,4,6,4,4,0
Luzula forsteri,4,8,2,4,5,2,0
Luzula glabatra,8,2,5,6,7,3,0
Luzula luzulina (flavescens),3,3,4,4,5,2,0
Luzula luzuloides (albida),4,x,4,5,3,4,0
Luzula nivea,4,5,4,5,3,3,0
Luzula pilosa,2,x,3,5,5,4,0
Luzula spicata,8,2,3,4,4,1,0
Luzula sudetica,8,3,4,5~,3,2,0
Luzula sylvatica ssp. sylvatica,4,4,2,5,4,4,0
Luzula sylvatica ssp. sieberi,3,3,2,5,2,3,0
Lychnis floscuculi,7,5,3,7~,x,x,0
Lychnis viscaria (Viscaria vulgaris),7,6,4,3,4,2,0
Lycium barbarum (halimifolium),9,7,5,5,7,4,0
Lycopodiella inundata,8,4,2,9=,3,1,0
Lycopodium annotinum,3,4,3,6,3,3,0
Lycopodium clavatum,8,4,3,4,2,2,0
Lycopus europaeus ssp. europaeus,7,6,5,9=,7,7,0
Lycopus exaltatus,7,6,6,9=,8,8,1
Lysimachia nemorum,2,5,2,7,7,7,0
Lysimachia nummularia,4,6,4,6~,x,x,0
Lysimachia punctata,6,7,4,7,8,4,0
Lysimachia thyrsiflora,7,6,1,9=,x,4,0
Lysimachia vulgaris,6,x,x,8~,x,x,0
Lythrum hyssopifolia,8,7,5,7=,3,4,2
Lythrum salicaria,7,5,5,8~,6,x,1
Maianthemum bifolium,3,x,6,5,3,3,0
Malaxis monophyllos ,3,4,5,8,6,6,0
Malus sylvestris agg.,7,6,3,5,7,5,0
Malva alcea,8,6,4,5,8,7,0
Malva moschata,8,6,3,4,7,4,0
Malva neglecta,8,6,7,5,7,9,0
Malva pusilla,8,7,7,4,5,5,1
Malva sylvestris,8,6,3,4,7,8,0
Marrubium vulgare,9,7,5,4,8,8,0
Marsilea quadrifolia,7,9,5,10,7,6,0
Matricaria discoidea,8,5,3,5,7,8,0
Matricaria recutita (chamomilla),7,6,5,5,5,5,0
Matteuccia struthiopteris,5,6,4,8,7,7,0
Medicago arabica,8,7,4,4,8,5,0
Medicago lupulina,7,5,x,4,8,x,0
Medicago minima,9,7,3,3,8,2,0
Medicago nigra (polymorpha),9,8,3,3,7,5,0
Medicago sativa sativa,8,6,6,4,7,x,0
Melampyrum arvense,7,7,5,4,8,3,0
Melampyrum cristatum,7,7,5,3~,8,2,0
Melampyrum nemorosum,5,6,4,4~,6,4,0
Melampyrum pratense,x,x,3,x,3,2,0
Melampyrum pratense ssp. commutatum,5,6,3,4,4,2,0
Melampyrum pratense ssp. oligocladum,5,3,4,5,2,2,0
Melampyrum pratense ssp. paludosum,7,4,x,7,2,1,0
Melampyrum pratense ssp. pratense,6,5,3,5,3,2,0
Melampyrum sylvaticum,4,4,5,5,2,2,0
Melica ciliata ciliata,8,7,4,2,7,2,0
Melica ciliata transsilvanica,7,8,4,3,6,4,0
Melica nutans nutans,4,x,3,4~,x,3,0
Melica nutans picta,5,8,4,4,6,4,0
Melica uniflora,3,5,2,5,6,6,0
Melilotus alba,9,6,6,3,7,4,0
Melilotus altissima,8,6,5,7~,7,7,2
Melilotus dentata,8,6,7,6~,7,5,2
Melilotus indica,9,6,4,5~,7,7,2
Melilotus officinalis,8,6,6,3,8,3,0
Melittis melissophyllum ssp. meliss.,5,7,2,4,6,3,0
Mentha aquatica,7,5,3,9=,7,5,0
Mentha arvensis,7,x,x,7~,x,x,0
Mentha longifolia (sylvestris),7,5,4,8=,9,7,0
Mentha x piperita agg.,8,7,x,6,7,6,0
Mentha pulegium,8,7,3,7=,7,7,1
Mentha suaveolens (rotundifolia),8,7,3,8=,6,5,1
Mentha x verticillata agg.,7,5,x,8~,7,x,0
Menyanthes trifoliata,8,x,x,9=,x,3,0
Mercurialis annua,7,7,3,4,7,8,0
Mercurialis perennis ovata,5,7,4,4,7,5,0
Mercurialis perennis perennis,2,x,3,x,8,7,0
Mespilus germanica,6,8,6,4,6,x,0
Meum athamanticum,8,4,2,5,3,3,0
Mibora minima,8,8,2,3,4,3,0
Micropus erectus,9,9,x,2,9,1,0
Milium effusum,4,x,3,5,5,5,0
Mimulus guttatus,7,x,3,9=,x,6,0
Minuartia austriaca,9,2,4,5,9,2,0
Minuartia cherlerioides (aretioides),8,1,4,3,8,2,0
Minuartia fastigiata (Alsine jacquinii),9,8,4,2,8,1,0
Minuartia hybrida (tenuifolia),9,7,3,3,8,3,0
Minuartia gerardii,9,2,7,5,7,2,0
Minuartia recurva,8,1,7,4,3,1,0
Minuartia rupestris,8,1,4,3,8,2,0
Minuartia sedoides,9,1,2,4,4,1,0
Minuartia setacea,9,7,6,2,7,1,0
Minuartia stricta,9,4,7,9,2,1,0
Minuartia verna,9,4,5,3,x,1,0B
Minuartia viscosa,8,6,5,3,x,2,0
Misopates orontium (Antirrhinum o.),7,7,3,5,5,5,0
Moehringia ciliata,9,2,4,5,7,2,0
Moehringia muscosa,5,3,2,7,9,2,0
Moehringia trinervia,4,5,3,5,6,7,0
Moenchia erecta,9,7,2,2,4,1,0
Molinia caerulea caerulea,7,x,3,7,x,2,0
Moneses uniflora,4,x,5,5,4,2,0
Monotropa hypopitys agg.,4,x,5,5,3,2,0
Montia fontana (ssp. fontana),8,4,2,9,5,4,0
Montia fontana ssp. chondrosperma,7,6,2,8=,3,4,0
Muscari botryoides,7,5,4,5,x,x,0
Muscari comosum,7,8,3,3,7,x,0
Muscari neglectum,7,8,7,3,7,5,0
Muscari racemosum,7,7,3,3,8,6,0
Muscari tenuiflorum,7,8,6,3,8,x,0
Myagrum perfoliatum,6,7,4,4,9,4,0
Mycelis muralis,4,6,2,5,x,6,0
Myosotis alpestris,8,2,4,5,9,4,0
Myosotis arvensis (intermedia),6,6,5,5,x,6,0
Myosotis discolor (versicolor),8,7,2,4,4,2,0
Myosotis decumbens,8,3,2,6,5,7,0
Myosotis laxa ssp. caespitosa ,7,6,3,9=,4,7,0
Myosotis nemorosa (strigulosa),7,5,4,8,5,5,0
Myosotis palustris (scorpioides),7,x,5,8~,x,5,0
"Myosotis ramosissima (coll., hispida)",9,6,5,2,7,1,0
Myosotis rehsteineri,9,6,4,10,9,2,0
Myosotis sparsiflora,5,6,6,6,7,7,0
Myosotis stricta (micrantha),8,6,5,3,6,2,0
Myosotis sylvatica,6,x,3,5,x,7,0
Myosoton aquaticum (Malachium a.),7,5,3,8=,7,8,0
Myosurus minimus,8,7,5,7=,6,5,0
Myrica gale,8,6,2,9,3,3,0
Myricaria germanica,8,4,7,8=,8,3,0
Myriophyllum alternifolium,7,5,2,12,6,3,0
Myriophyllum spicatum,5,6,x,12,9,7,x
Myriophyllum verticillatum,5,6,5,12,7,8,0
Myrrhis odorata,7,6,2,5,7,7,0
Najas flexilis,5,6,4,12,8,5,0
Najas intermedia,7,6,4,12,9,4,0
Najas marina,5,6,4,12,9,6,1
Najas minor,6,7,4,12,8,4,0
Narcissus pseudonarcissus,8,4,2,6,4,4,0
Narcissus radiiflorus (exsertus),8,3,4,5,6,5,0
Nardurus halleri,9,8,2,2,4,1,0
Nardus stricta,8,x,3,x~,2,2,0
Narthecium ossifragum,8,4,1,9,2,1,0
Nasturtium officinale agg.,7,x,3,10,7,7,0
Neottia nidus avis,2,5,3,5,7,5,0
Nepeta cataria,8,7,3,4,7,7,0
Nepeta pannonica,8,7,6,2,7,x,0
Neslia paniculata,6,6,5,4,8,4,0
Nicandra physalodes,8,7,x,4,7,7,0
Nigella arvensis,8,7,5,3,9,3,0
Nigritella miniata (nigra ssp. rubra),8,2,x,4,9,2,0
Nigritella nigra agg.,8,2,4,4,6,2,0
Nonea pulla,7,6,6,3,9,2,0
Nuphar lutea,8,6,4,11,7,6,0
Nuphar pumila,8,4,7,11,4,2,0
Nymphaea alba,8,6,3,11,7,5,0
Nymphaea candida,8,6,6,11,4,4,0
Nymphoides peltata (Limnanthemum n.),8,7,5,11,8,7,0
Odontites litoralis,8,6,x,7=,7,4,4
Odontites lutea,7,7,5,3,9,2,0
"Odontites rubra (vulgaris, serotina)",6,6,3,5~,7,5,1
Odontites verna,6,6,3,5,6,5,0
Odontites viscosa,6,7,7,3,7,2,0
Oenanthe aquatica,7,6,5,10,7,6,0
Oenanthe conioides,7,6,3,10,7,8,2
Oenanthe fistulosa,7,7,2,9=,8,5,0
Oenanthe fluviatilis,8,7,1,11,8,7,0
Oenanthe lachenalii,8,7,2,8=,8,7,3
Oenanthe peucedanifolia,7,7,2,9~,x,3,0
Oenanthe silaifolia,8,6,5,8~,7,5,2
Oenothera biennis,9,7,3,4,x,4,0
Oenothera parviflora (muricata) agg.,8,6,2,3,7,3,1
Oenothera parviflora ammophila,9,6,4,3,8,5,1
Omphalodes scorpioides,3,6,4,6,8,7,0
Omphalodes verna,4,6,4,5,7,6,0
Onobrychis arenaria,7,7,7,2,9,1,0
Onobrychis montana,9,3,6,4,9,2,0
Onobrychis viciifolia,8,7,6,3,8,3,0
Ononis arvensis (hircina),8,6,7,4~,7,2,0
Ononis natrix,8,8,3,3,8,1,0
Ononis repens,8,5,2,4~,7,2,0
Ononis rotundifolia,7,7,7,3,8,2,0
Ononis spinosa (campestris),8,6,5,4~,7,3,1
Onopordum acanthium,9,7,6,4,7,8,0
Onosma arenarium,7,8,6,3,8,1,0
Ophioglossum vulgatum,7,6,3,7,7,2,1
Ophrys apifera,7,6,2,4,9,2,0
Ophrys holosericea,8,7,4,4~,9,2,0
Ophrys insectifera,7,5,4,4,9,3,0
Ophrys sphecodes agg.,8,8,4,4~,9,3,0
Orchis coriophora,8,7,4,7,4,2,0
Orchis mascula,6,x,3,4,8,x,0
Orchis militaris,7,6,5,3,9,2,0
Orchis morio,7,5,3,4~,7,3,0
Orchis pallens,4,5,4,5,8,4,0
Orchis palustris (laxiflora ssp. pal,9,6,5,9~,8,2,1
Orchis purpurea,5,7,4,4~,8,3,0
Orchis simia,8,8,2,3,8,2,0
Orchis tridentata,9,7,4,3,9,2,0
Orchis ustulata,7,5,5,4,x,3,0
Oreochloa disticha,9,1,4,5,1,1,0
Origanum vulgare,7,x,3,3,8,3,0
Orlaya grandiflora,7,7,2,3,9,4,0
Ornithogalum kochii (orthophyllum ssp. k.),9,8,5,2,8,1,0
Ornithogalum nutans agg.,6,7,4,4,7,7,0
Ornithogalum pyrenaicum,4,6,2,5,6,5,0
Ornithogalum umbellatum,6,6,4,5,7,7,0
Ornithopus perpusillus,7,6,2,3,2,2,0
Orobanche alba (epithymum),8,x,3,3,9,x,0
Orobanche alsatica alsatica,7,7,7,3,8,2,0
Orobanche alsatica bartlingii,7,6,4,3,7,2,0
Orobanche alsatica mayeri,x,5,7,3,7,x,0
Orobanche amethystea,8,8,2,1,8,1,0
Orobanche arenaria,7,8,5,3,x,1,0
Orobanche caryophyllacea (vulgaris),8,6,5,3,9,2,0
Orobanche coerulescens,9,7,7,2,8,1,0
Orobanche elatior (major),7,7,5,4,8,3,0
Orobanche flava,9,4,4,5,9,2,0
Orobanche gracilis,x,x,2,3,7,2,0
Orobanche hederae,4,6,2,5,6,x,0
Orobanche lucorum,5,6,4,5,8,x,0
Orobanche lutea (rubens),x,6,5,3,8,x,0
Orobanche minor (barbata),6,6,2,5,7,5,0
Orobanche picridis,7,7,2,4,7,5,0
Orobanche purpurea,7,7,5,4,7,2,0
Orobanche ramosa,6,7,5,5,7,7,0
Orobanche rapum genistae,x,6,1,5,3,2,0
Orobanche reticulata,7,x,4,4,8,2,0
Orobanche salviae,4,5,4,5,8,7,0
Orobanche teucrii,8,6,2,2,9,1,0
Orthilia secunda,4,x,3,5,x,2,0
Osmunda regalis,5,6,2,8,4,5,0
Ostrya carpinifolia,4,8,5,4,x,5,0
Oxalis acetosella,1,x,3,5,4,6,0
Oxalis corniculata,7,7,x,4,x,6,0
Oxalis dillenii (stricta),7,7,3,5,6,5,0
Oxalis fontana (europaea),6,6,x,5,5,7,0
Oxyria digyna,8,2,x,5,3,3,0
Oxytropis campestris,9,2,6,4,6,2,0
Oxytropis jacquinii (montana),8,2,4,4,9,2,0
Oxytropis pilosa,9,7,7,1,7,1,0
Papaver argemone,6,6,2,4,5,5,0
Papaver dubium agg.,6,6,3,4,5,5,0
Papaver dubium lecoquii,8,7,3,4,7,5,0
Papaver hybridum,7,7,3,5,7,5,0
Papaver rhoeas,6,6,3,5,7,6,0
Papaver sendtneri,9,1,4,5,9,2,0
Parapholis strigosa,8,6,2,7=,7,4,5
Parietaria judaica (diffusa),6,7,2,7,8,7,0
Parietaria officinalis (erecta),5,7,4,5,7,7,0
Parietaria pensylvanica,7,7,x,5,7,8,0
Paris quadrifolia,3,x,4,6,7,7,0
Parnassia palustris,8,x,x,8~,7,2,0
Pastinaca sativa,8,6,5,4,8,5,0
Pedicularis aspleniifolia,8,1,5,6,8,3,0
Pedicularis foliosa,7,3,2,6,8,3,0
Pedicularis oederi,9,2,7,5,9,2,0
Pedicularis palustris,8,x,x,9=,x,2,0
Pedicularis recutita,8,3,4,6,7,4,0
Pedicularis rostrato,8,2,4,5,9,3,0
Pedicularis sceptrum,8,5,7,8~,8,2,0
Pedicularis sylvatica,7,5,2,8~,1,2,0
Pedicularis verticillata,8,3,7,x,8,2,0
Peplis portula,8,6,3,7=,3,2,0
Petasites albus,4,4,4,6,x,5,0
Petasites hybridus (officinalis),7,5,2,8=,7,8,0
Petasites paradoxus (niveus),8,3,4,6,8,3,0
Petasites spurius,9,6,6,6~,7,5,0
Petrocallis pyrenaica,8,1,4,4,9,1,0
Petrorhagia prolifera,8,7,3,3,5,2,0
Petrorhagia saxifraga,9,7,4,2,7,1,0
Peucedanum alsaticum,7,7,6,4~,9,3,0
Peucedanum carvifolia,8,7,6,5,7,5,0
Peucedanum cervaria,7,6,4,3,7,3,0
Peucedanum officinale,7,7,5,4~,8,2,0
Peucedanum oreoselinum,6,6,4,3,6,2,0
Peucedanum ostruthium (Imperatoria o.),6,3,2,5,7,7,0
Peucedanum palustre,7,6,6,9=,x,4,0
Phalaris arundinacea,7,5,x,8~,7,7,0
Phleum alpinum (rhaeticum) agg.,8,3,3,5,6,7,0
Phleum arenarium,9,6,3,3,7,3,1
Phleum hirsutum (michelii),8,3,4,5,7,4,0
Phleum paniculatum,7,6,4,4,8,4,0
Phleum phleoides (boehmeri),8,6,7,3,8,2,0
Phleum pratense pratense,7,x,5,5,x,7,0
Phragmites australis (communis),7,5,x,10,7,7,0
Phyllitis scolopendrium,4,5,2,5,8,4,0
Physalis alkekengi,5,7,5,6,8,7,0
Phyteuma betonicifolium,8,3,4,5,2,1,0
Phyteuma hemisphaericum,8,2,4,5,3,1,0
Phyteuma nigrum,7,4,4,5,5,4,0
Phyteuma orbiculare orbiculare,8,3,4,5,8,3,0
Phyteuma orbiculare tenerum,8,6,4,2,8,1,0
Phyteuma ovatum (halleri),7,3,4,6,7,6,0
Phyteuma scheuchzeri,8,4,6,4,4,2,0
Phyteuma spicatum,x,x,4,5,6,5,0
Picea abies (excelsa),5,3,6,x,x,x,0
Picris echioides ,7,7,3,5,8,6,0
Picris hieracioides agg.,8,x,5,4,8,4,0
Pilularia globulifera,8,6,2,9=,4,2,0
Pimpinella major ssp. major,7,5,2,5,7,6,0
Pimpinella major ssp. rubra,7,4,3,5,6,5,0
Pimpinella saxifraga saxifraga,7,x,5,3,x,2,0
Pinguicula alpina,9,3,5,x,8,2,0
Pinguicula leptoceras,8,4,5,9,8,1,0
Pinguicula vulgaris,8,x,3,8,7,2,0
Pinus cembra,5,2,7,5,4,3,0
Pinus mugo mugo (pumilio),8,3,3,x,x,3,0
Pinus mugo rotundata,8,3,5,8,2,2,0
Pinus nigra,7,7,4,3,9,2,0
Pinus sylvestris,7,x,7,x,x,x,0
Plantago alpina,8,3,2,5~,3,2,0
Plantago atrata (montana) ssp. atrata,8,3,4,7,8,5,0
Plantago coronopus,8,7,3,7=,7,4,4
Plantago indica (arenaria),8,7,5,4,7,5,0
Plantago lanceolata,6,x,3,x,x,x,0
Plantago major ssp. major,8,x,x,5,x,6,0
Plantago major ssp. intermedia,7,6,x,7=,5,4,0
Plantago maritima,8,6,x,7=,8,5,7
Plantago media,7,x,7,4,7,3,0
Plantago serpentina,9,6,6,4,6,2,0
Platanthera bifolia,6,x,3,5~,7,x,0
Platanthera chlorantha,6,x,3,7~,7,x,0
Pleurospermum austriacum,5,4,5,6~,8,4,0
Poa alpina,7,3,5,5,x,7,0
Poa annua,7,x,5,6,x,8,1
Poa badensis,8,7,4,3,8,1,0
Poa bulbosa,8,7,7,3,5,2,0
Poa cenisia,8,2,2,5,8,3,0
Poa chaixii (sudetica),6,5,4,5,3,4,0
Poa compressa,9,x,4,3,9,3,0
Poa hybrida,6,3,4,6,6,7,0
Poa laxa (flexuosa),8,1,2,5,3,2,0
Poa minor,8,2,2,5,8,3,0
Poa nemoralis,5,x,5,5,5,4,0
Poa palustris,7,5,5,9=,8,7,0
Poa pratensis pratensis,6,x,x,5,x,6,0
Poa pratensis subcoerulea,9,5,3,5,6,3,3
Poa remota,5,6,6,7,8,7,0
Poa supina,8,3,4,5,7,7,0
Poa trivialis,6,x,3,7,x,7,1
Podospermum laciniatum (Scorzonera lac.),8,8,6,3~,8,4,1
Polemonium caeruleum,6,4,5,7,8,6,0
Polycarpon tetraphyllum,9,8,3,3,5,x,0
Polycnemum arvense,8,8,7,3,7,2,0
Polycnemum majus,8,7,6,4,8,4,0
Polycnemum verrucosum,8,8,6,2,6,1,0
Polygala alpestris ssp. alpestris,8,2,4,4,7,2,0
Polygala amara agg.,8,3,4,4~,8,2,0
Polygala amarella,9,x,4,9,9,1,0
Polygala calcarea,7,7,1,3,9,2,0
Polygala chamaebuxus (Polygal. ch.),6,4,4,3~,8,2,0
Polygala comosa (vulgaris ssp. com.),8,6,6,3,8,2,0
Polygala serpyllifolia,8,4,2,6,2,2,0
Polygala vulgaris,7,x,3,4,3,2,0
Polygonatum multiflorum,2,x,5,5,6,5,0
Polygonatum odoratum (officinale),7,5,5,3,7,3,0
Polygonatum verticillatum,4,4,2,5,4,5,0
Polygonum amphibium,7,6,x,11,6,4,0
Polygonum amphibium var. terrestre,8,6,x,x,x,6,0
Polygonum aviculare agg.,7,6,x,4,x,6,1
Polygonum bistorta,7,4,7,7,5,5,0
Polygonum hydropiper,7,6,x,8=,5,8,0
Polygonum lapathifolium ssp. Lapathifolium,6,6,4,8,x,8,0
Polygonum lapathifolium ssp. Danubiale,8,6,5,7=,x,5,0
Polygonum lapathifolium ssp. incanum,7,6,4,6,x,8,0
Polygonum minus,7,6,3,8=,5,8,0
Polygonum mite,7,6,3,8,6,7,0
Polygonum oxyspermum ssp. raii,9,6,4,7=,7,8,1
Polygonum persicaria,6,6,3,5,7,7,0
Polygonum rurivagum (aviculare ssp. r.),7,7,3,5,8,7,0
Polygonum viviparum,7,2,x,5~,4,2,0
Polypodium interjectum (vulg. ssp. prion.),5,6,3,5,x,x,0
Polypodium vulgare agg.,5,5,3,4,2,2,0
Polystichum aculeatum (lobatum),3,6,2,6,6,7,0
Polystichum braunii,3,4,2,6,6,7,0
Polystichum lonchitis,6,4,3,5,8,3,0
Polystichum setiferum (angulare),3,7,2,6,5,5,0
Populus alba,5,7,7,7~,8,6,0
Populus nigra,5,6,6,8=,7,7,0
Populus tremula,6,5,5,5,x,x,0
Portulaca oleracea,7,8,3,4,7,7,0
Potamogeton acutifolius ,7,6,4,11,5,6,0
Potamogeton alpinus (rufescens),7,4,x,12,6,6,0
Potamogeton x angustifolius (x zizii),7,6,4,12,7,5,0
Potamogeton coloratus,8,6,3,11,8,8,0
Potamogeton compressus,6,5,x,12,8,4,0
Potamogeton crispus,6,5,3,12,7,5,1
Potamogeton filiformis,8,4,5,12,4,3,0
Potamogeton friesii (mucronatus),5,6,5,11,7,6,0
Potamogeton gramineus,8,4,x,12,5,5,0
Potamogeton lucens,6,6,4,12,6,7,0
Potamogeton natans,6,5,5,11,7,5,0
Potamogeton x nitens,7,5,2,12,7,5,0
Potamogeton nodosus (fluitans),6,6,5,12,8,5,0
Potamogeton obtusifolius,6,6,3,12,6,6,0
Potamogeton pectinatus pectinatus,6,x,5,12,8,8,1
Potamogeton perfoliatus,6,x,x,12,7,6,1
Potamogeton polygonifolius (oblongus),7,6,2,10,3,2,0
Potamogeton praelongus,8,4,5,12,8,4,0
Potamogeton pusillus agg. (berchtoldii),6,5,5,12,6,x,1
Potamogeton pusillus berchtoldii,6,6,5,12,7,5,1
Potamogeton rutilus,7,5,4,12,8,5,0
Potamogeton trichoides,8,6,5,11,5,4,0
Potentilla alba,6,6,5,4,5,5,0
Potentilla anglica agg.,7,6,2,5,8,4,0
Potentilla anserina,7,6,x,6~,x,7,1
Potentilla argentea agg.,9,6,3,2,3,1,0
Potentilla aurea,8,3,4,4,3,2,0
Potentilla brauneana (dubia),7,2,2,7,9,5,0
Potentilla caulescens,8,3,4,3,8,3,0
Potentilla clusiana,8,2,4,3,8,2,0
Potentilla collina,9,7,4,2,2,1,0
Potentilla crantzii,9,2,3,5,8,2,0
Potentilla erecta (Tormentilla erecta),6,x,3,x,x,2,0
Potentilla frigida,9,1,6,4,2,1,0
Potentilla grandiflora,8,3,5,3,4,2,0
Potentilla heptaphylla (opaca),7,5,4,3,9,2,0
Potentilla inclinata (canescens),9,7,5,2,6,1,0
Potentilla intermedia,8,6,6,3,7,4,0
Potentilla micrantha,5,7,4,4,8,4,0
Potentilla norvegica,7,6,6,5,5,5,0
Potentilla palustris (Comarum),8,x,x,9=,3,2,0
Potentilla recta,9,7,5,3,5,2,0
Potentilla reptans,6,6,3,6,7,5,0
Potentilla rhenana,9,8,4,2,2,1,0
Potentilla rupestris,7,7,4,4,6,2,0
Potentilla sterilis (fragariastrum),5,5,2,5,6,6,0
Potentilla supina,7,7,5,8=,6,7,2
Potentilla thuringiaca (parviflora),6,6,5,4,6,3,0
Potentilla verna neumanniana,8,6,4,3,7,2,0
Potentilla verna pusilla (puberula),9,6,4,2,8,1,0
Prenanthes purpurea,4,4,4,5,5,5,0
Primula auricula,8,3,4,x,8,2,0
Primula clusiana,8,2,4,5,8,2,0
Primula elatior,6,x,4,6,7,7,0
Primula farinosa,8,x,4,8~,9,2,0
Primula glutinosa,8,1,7,4,2,1,0
Primula hirsuta,8,2,5,5,3,2,0
Primula integrifolia,8,1,4,6,3,3,0
Primula minima,8,2,4,5,1,1,0
Primula veris (officinalis),7,x,3,4,8,3,0
Primula vulgaris (acaulis),6,5,2,5,7,5,0
Prunella grandiflora,7,x,5,3,8,3,0
Prunella laciniata (alba),7,7,2,3,9,2,0
Prunella vulgaris,7,x,3,5,7,x,0
Prunus avium,4,5,4,5,7,5,0
Prunus fruticosa,8,8,8,3,8,x,0
Prunus mahaleb,7,7,4,3,8,2,0
Prunus padus (Padus avium),5,5,3,8=,7,6,0
Prunus serotina (Padus serotina),6,6,x,5,x,x,0
Prunus spinosa,7,5,5,4,7,x,0
Pseudorchis albida (Gymnadenia a.),8,4,2,5,2,2,0
Pteridium aquilinum,6,5,3,5~,3,3,0
Puccinellia capillaris,9,6,x,8=,7,4,7
Puccinellia distans (Atropis distans),8,6,6,6~,7,4,7
Puccinellia limosa,8,6,6,7,7,5,6
Puccinellia maritima,9,6,3,8=,7,5,8
Pulicaria dysenterica,8,6,3,7~,7,5,0
Pulicaria vulgaris,9,6,x,8=,6,7,1
Pulmonaria angustifolia,5,7,4,5~,6,3,0
Pulmonaria collina,5,6,x,5,8,4,0
Pulmonaria mollis,5,5,4,5~,8,5,0
Pulmonaria mollis ssp. alpigena,5,4,x,5,8,x,0
Pulmonaria montana ssp. montana,6,6,2,5~,6,5,0
Pulmonaria officinalis officinalis,5,6,5,5,8,6,0
Pulsatilla alba (micrantha),8,4,4,5,2,2,0
Pulsatilla alpina,8,2,2,5,8,3,0
Pulsatilla apiifolia (sulphurea) ,9,2,2,5,3,2,0
Pulsatilla grandis,9,6,x,3,9,1,0
Pulsatilla patens,6,6,5,4,6,2,0
Pulsatilla pratensis,7,6,5,2,7,2,0
Pulsatilla vernalis (var. bidgostiana),7,x,5,4,5,2,0
Pulsatilla vulgaris,7,6,5,2,7,2,0
Pyrola chlorantha (virens),5,5,5,4,5,2,0
Pyrola media,4,x,4,4,5,2,0
Pyrola minor,6,x,x,5,3,2,0
Pyrola rotundifolia,4,x,5,6,5,3,0
Pyrus communis agg.,6,6,5,5,8,x,0
Quercus cerris,6,8,4,4,6,x,0
Quercus ilex,4,9,2,3,x,x,0
Quercus petraea (sessiliflora),6,6,2,5,x,x,0
Quercus pubescens,7,8,4,3,7,x,0
Quercus robur,7,6,6,x,x,x,0
Radiola linoides,8,6,3,7=,3,2,0
Ranunculus aconitifolius,6,4,2,8,5,6,0
Ranunculus acris agg.,7,x,3,6,x,x,0
Ranunculus alpestris,9,2,x,7,8,4,0
Ranunculus aquatilis aquatilis,7,5,2,11,6,6,0
Ranunculus aquatilis peltatus,6,6,3,12,5,6,0
Ranunculus aquatilis penicillatus (pseudofluit.),8,6,4,11,7,x,0
Ranunculus aquatilis trichophyllus (flacidus),7,x,x,12,8,7,0
Ranunculus aquatilis ssp. lutulentus (eradicatus),7,3,3,12,8,3,0
Ranunculus aquatilis tripartitus,9,6,1,10,6,3,0
Ranunculus arvensis,6,6,3,4,8,x,0
Ranunculus auricomus agg.,5,6,3,x,7,x,0
Ranunculus baudotii,8,6,x,10,9,7,6
Ranunculus bulbosus,8,6,3,3,7,3,0
Ranunculus circinatus (divaricatus),6,6,5,12,7,8,1
Ranunculus ficaria (Ficaria verna),4,5,3,6,7,7,0
Ranunculus flammula flammula,7,x,3,9~,3,2,1
Ranunculus flammula reptans,8,6,x,10,8,2,0
Ranunculus fluitans,8,6,2,12,x,8,0
Ranunculus glacialis,8,1,4,6,3,2,0
Ranunculus hederaceus,8,5,1,9=,3,x,0
Ranunculus hybridus,9,2,4,5,9,3,0
Ranunculus illyricus,8,7,6,4,7,4,0
Ranunculus lanuginosus,3,6,4,6,7,7,0
Ranunculus lingua,7,x,x,10,6,7,0
Ranunculus montanus montanus,6,3,4,5,8,6,0
Ranunculus montanus oreophilus (hornschuchii),8,3,4,5,8,3,0
Ranunculus ololeucos,8,6,1,10,x,3,0
Ranunculus parnassifolius,8,2,3,5,9,3,0
Ranunculus platanifolius,5,4,4,6,x,7,0
Ranunculus polyanthemos polyanthemos,6,6,5,4~,x,2,0
Ranunculus polyanthemos serpens (radicescens),4,4,3,5,x,7,0
Ranunculus pygmaeus,8,1,3,7,3,3,0
Ranunculus pyrenaeus,8,1,4,5,4,2,0
Ranunculus repens,6,x,x,7~,x,7,1
Ranunculus sardous,8,6,4,8=,x,7,1
Ranunculus sceleratus,9,6,x,9=,7,9,2
Raphanus raphanistrum agg.,6,5,3,5,4,6,0
Rapistrum perenne,9,8,6,3,9,4,0
Rapistrum rugosum,7,7,3,4,8,5,0
Reseda lutea,7,6,3,3,8,5,0
Reseda luteola,8,7,3,4,9,6,0
Reynoutria japonica (Polygon. cuspidat.),8,6,2,8=,5,7,0
Reynoutria sachalinensis,7,7,2,8=,7,8,0
Rhamnus alpinus,6,5,5,4,8,3,0
Rhamnus catharticus,7,5,5,4,8,4,0
Rhamnus pumilus,8,2,4,3,9,2,0
Rhamnus saxatilis,7,6,4,3,9,2,0
Rhinanthus aristatus aristatus,8,4,4,5,5,2,0
Rhinanthus aristatus glacialis,8,3,4,5,4,2,0
Rhinanthus minor,7,5,3,4,x,3,0
Rhinanthus serotinus agg. (major),7,5,3,6~,7,2,0
Rhodiola rosea (Saxifraga rosea),7,4,3,6,4,x,0
Rhododendron ferrugineum,7,3,4,6,2,2,0
Rhododendron hirsutum,7,3,4,4,7,3,0
Rhododendron x intermedium,7,3,4,5,6,2,0
Rhodothamnus chamaecistus,6,3,4,5,8,2,0
Rhynchosinapi cheiranthos (Hutera ch.),9,8,2,4,6,3,0
Rhynchospora alba,8,5,3,9=,3,2,0
Rhynchospora fusca,8,5,2,9=,1,2,0
Ribes alpinum,5,4,4,x,8,7,0
Ribes nigrum,4,x,7,9=,6,5,0
Ribes petraeum,5,3,4,5,6,7,0
Ribes rubrum rubrum,4,6,7,8,6,6,0
Ribes rubrum spicatum,4,5,7,8=,7,7,0
Ribes uva crispa,4,5,2,x,x,6,0
Robinia pseudacacia,5,6,4,4,x,8,0
Rorippa amphibia ,7,6,7,10,7,8,0
Rorippa x anceps (prostrata),7,6,4,9=,9,8,0
Rorippa x armoracioides,7,6,x,8=,x,x,0
Rorippa austriaca,8,7,4,7=,8,8,0
Rorippa islandica (palustris) agg.,7,x,x,8=,x,8,0
Rorippa pyrenaica (stylosa),8,7,2,5,6,6,0
Rorippa sylvestris,6,6,3,8=,8,6,0
Rosa abietina,8,5,x,5,7,3,0
Rosa agrestis,8,6,4,3,8,3,0
Rosa arvensis (repens),5,5,2,5,7,5,0
Rosa canina agg.,8,5,3,4,x,x,0
Rosa coriifolia (caesia),8,6,3,3,8,3,0
Rosa corymbifera agg. (dumetor.),8,6,4,4,7,5,0
Rosa elliptica,8,6,4,3,8,3,0
Rosa gallica,7,7,4,4~,7,4,0
Rosa glauca (rubrifolia),8,5,4,4,7,2,0
Rosa jundzillii,8,7,6,3,8,4,0
Rosa majalis (cinnamomea),7,6,7,5,8,3,0
Rosa micrantha,8,6,4,3,8,3,0
Rosa obtusifolia (tomentella),7,6,4,4,8,4,0
Rosa pendulina,6,4,2,5,7,6,0
Rosa pimpinellifolia (spinosissima,8,6,5,4,8,3,0
Rosa rubiginosa (eglanteria),7,6,2,3,8,3,0
Rosa scabriuscula,8,6,4,3,8,3,0
Rosa stylosa,8,7,2,4,8,4,0
Rosa subcanina,8,5,3,4,6,3,0
Rosa subcollina,8,6,3,3,8,3,0
Rosa subdumetorum,8,6,4,4,7,5,0
Rosa tomentosa,8,6,2,4,7,4,0
Rosa villosa (pomifera),6,5,2,3,8,2,0
Rosa vosagiaca,7,5,2,5,6,3,0
Rubia peregrina,6,9,1,4,x,3,0
Rubus caesius,6,5,4,x,8,7,0
Rubus chamaemorus,9,3,7,8,2,1,0
Rubus idaeus,7,x,x,x,x,6,0
Rubus saxatilis,7,x,7,6,7,4,0
Rudbeckia hirta,8,7,5,4,8,5,0
Rudbeckia laciniata,7,6,5,8~,7,7,0
Rumex acetosa,8,x,x,x,x,6,0b
Rumex acetosella acetosella,8,5,3,3,2,2,0b
Rumex acetosella tenuifolius,9,6,5,3,2,1,0
Rumex alpestris (arifolius),7,3,5,6,8,6,0
Rumex alpinus,8,4,4,6,7,9,0
Rumex aquaticus,7,6,7,8=,7,8,0
Rumex conglomeratus,8,6,3,7,x,8,0
Rumex crispus,7,5,3,7~,x,6,0
Rumex hydrolapathum,7,6,3,10,7,7,0
Rumex longifolius (domesticus),8,6,x,5,x,8,0
Rumex maritimus,8,7,x,9=,8,9,2
Rumex nivalis,8,2,4,7,8,4,0
Rumex obtusifolius,7,5,3,6,x,9,0
Rumex palustris,8,7,3,9=,9,8,0
Rumex pulcher,8,7,3,3~,7,7,0
Rumex sanguineus,4,6,2,8,7,7,0
Rumex scutatus,8,x,2,4,7,3,0
Rumex stenophyllus,8,6,8,7=,8,5,2
Rumex thyrsiflorus,8,7,7,3~,7,4,0
Rumex triangulivalvis,8,6,x,7,7,7,0
Ruppia cirrhosa (spiralis),x,6,x,12,8,x,9
Ruppia maritima,x,6,8,10,8,x,9
Sagina apetala (micropetala),8,7,2,7~,4,4,0
Sagina maritima,8,6,x,7=,8,3,4
Sagina nodosa,8,6,3,8~,8,5,2
Sagina procumbens,7,x,3,5~,7,6,2
Sagina saginoides (linnaei),7,3,3,6~,5,4,0
Sagina subulata,8,6,2,7,x,x,0
Sagittaria sagittifolia,7,6,4,10,7,6,0
Salicornia europaea europaea,9,6,x,8=,8,4,9
Salicornia fragilis (dolich. ssp. decumbens),9,6,x,7=,7,3,7
Salicornia prostrata,9,6,x,x,x,x,x
Salicornia ramosissima,9,6,x,8=,8,5,9
Salix alba,5,6,6,8=,8,7,0
Salix alpina,9,2,x,6,8,4,0
Salix appendiculata (grandifolia),7,3,4,6,8,6,0
Salix aurita,7,x,3,8~,4,3,0
Salix caprea,7,x,3,6,7,7,0
Salix cinerea,7,x,5,9~,5,4,0
Salix daphnoides,6,x,4,8~,8,4,0
Salix elaeagnos (incana),7,5,2,7~,8,4,0
Salix foetida,8,3,2,7~,4,4,0
Salix fragilis fragilis,5,5,3,8=,6,6,0
Salix fragilis x rubens,(5),6,x,8=,6,6,0
Salix glabra,6,3,4,7,8,4,0
Salix hastata,7,3,7,6,7,4,0
Salix herbacea,7,2,3,7,3,4,0
Salix myrsinifolia (nigricans),7,4,6,7=,8,6,0
Salix myrtilloides,6,4,8,9,4,2,0
Salix pentandra,7,5,7,8~,6,4,0
Salix purpurea,8,5,4,x=,8,x,0
Salix repens ,8,5,x,7,x,x,0
Salix repens ssp. argentea (arenari,9,6,4,6,7,3,0
Salix repens ssp. rosmarinifolia,8,5,6,8,5,2,0
Salix reticulata,8,2,x,6,9,3,0
Salix retusa retusa,7,2,4,6,8,4,0
Salix retusa serpillifolia,7,2,4,4,9,2,0
Salix starkeana (livida),7,4,7,7~,4,x,0
Salix triandra (amygdalina),7,5,5,8=,7,5,0
Salix viminalis,7,6,7,8=,7,x,0
Salix waldsteiniana (arbusc. agg.),7,3,4,6~,8,5,0
Salsola kali ssp. kali,9,7,x,x=,7,8,6
Salsola kali ssp. ruthenica,9,7,8,4,8,5,2
Salvia glutinosa,4,5,4,6,7,7,0
Salvia pratensis,8,6,4,3,8,4,0
Salvia nemorosa,7,7,x,4,9,4,0
Salvia verticillata,9,6,6,4,7,5,0
Salvinia natans,7,8,5,11,7,7,0
Sambucus ebulus,8,6,3,5,8,7,0
Sambucus nigra,7,5,3,5,x,9,0
Sambucus racemosa,6,4,4,5,5,8,0
Samolus valerandi,8,6,3,8=,7,5,4
Sanguisorba minor (Poterium sanguisorba),7,6,5,3,8,2,0
Sanguisorba muricata,8,8,5,2,7,2,0
Sanguisorba officinalis,7,5,7,6~,x,5,0
Sanicula europaea,4,5,3,5,8,6,0
Saponaria ocymoides,7,x,2,3~,9,2,0
Saponaria officinalis,7,6,3,5,7,5,0
Saussurea alpina ssp. alpina,9,1,7,5,5,3,0
Saussurea discolor,9,1,6,5,8,2,0
Saussurea pygmaea,9,2,5,5,8,2,0
Saxifraga adscendens,8,2,4,4,5,6,0
Saxifraga aizoides,8,3,3,9=,8,3,0
Saxifraga androsacea,7,2,5,7,8,4,0
Saxifraga aphylla,9,1,4,5,9,3,0
Saxifraga aspera,8,3,5,4,3,2,0
Saxifraga biflora ssp. macropetala,9,1,4,6,8,x,0
Saxifraga bryoides (aspera ssp. bryoid.),9,1,4,5,3,2,0
Saxifraga burserana,9,3,4,4,9,2,0
Saxifraga caesia,8,2,4,3,9,2,0
Saxifraga cotyledon,8,3,4,5,3,2,0
Saxifraga cuneifolia,4,4,5,6,3,2,0
Saxifraga decipiens (rosacea),7,4,2,4,8,x,0
Saxifraga exarata agg.,8,1,x,4,2,2,0
Saxifraga granulata,x,6,2,4,5,3,0
Saxifraga hirculus,9,5,7,9=,4,2,0
Saxifraga moschata,8,1,5,4,8,3,0
Saxifraga mutata (ssp. amphibia),8,4,4,8,9,1,0
Saxifraga oppositifolia ssp. oppositifolia,8,2,3,5,8,2,0
Saxifraga oppositifolia ssp. amphibia,9,6,3,9=,8,2,0
Saxifraga paniculata (aizoon),7,3,3,3,8,2,0
Saxifraga rotundifolia,5,3,4,6,8,6,0
Saxifraga seguieri,8,2,3,7,3,3,0
Saxifraga sponhemica,7,6,2,4,5,2,0
Saxifraga stellaris,8,3,2,9=,5,x,0
Saxifraga tridactylites,8,6,2,2,7,1,0
Scabiosa canescens (suaveolens),7,7,6,3,8,3,0
Scabiosa columbaria columbaria,8,5,2,3,8,3,0
Scabiosa columbaria gramuntia,8,7,5,2,5,2,0
Scabiosa columbaria lucida,9,3,4,4,8,3,0
Scabiosa ochroleuca,8,7,6,3,8,2,0
Scandix pecten veneris,7,7,3,3,8,4,0
Scheuchzeria palustris,9,5,5,9=,3,1,0
Schoenoplectus americanus,8,6,4,10,7,7,1
Schoenoplectus x carinatus,8,6,x,11,7,7,2
Schoenoplectus lacustris (Scirpus lacustris),8,6,3,11,7,6,1
Schoenoplectus mucronatus,8,7,4,10,7,8,0
Schoenoplectus supinus (Isolepis),8,7,x,8=,7,3,0
Schoenoplectus tabernaemontani (Scirpus t.),8,7,6,10,9,6,3
Schoenoplectus triqueter (Scirpus triqueter),8,6,5,10,7,7,2
Schoenus ferrugineus,9,4,4,8,7,2,0
Schoenus nigricans,9,6,3,9=,9,2,1
Scilla bifolia,5,7,5,7,7,6,0
Scilla nonscripta,5,6,1,5,7,6,0
Scirpus radicans,7,6,6,9=,7,6,0
Scirpus sylvaticus,6,5,4,8,4,4,0
Scleranthus annuus,6,5,4,5,2,5,0
Scleranthus perennis,8,6,4,2,4,1,0
Scleranthus polycarpos (biennis),9,4,3,2,3,1,0
Scleranthus verticillatus (collinus),9,7,4,2,6,1,0
Sclerochloa dura,9,7,8,4~,8,5,1
Scolochloa festucacea,8,6,8,10,8,6,0
Scorzonera austriaca,7,7,7,3~,8,2,0
Scorzonera hispanica,7,7,6,4,8,3,0
Scorzonera humilis,7,6,5,7,5,2,0
Scorzonera parviflora,8,6,8,7,8,4,5
Scorzonera purpurea,8,7,6,2,8,2,0
Scrophularia auriculata (aquatica),8,7,1,9=,6,7,0
Scrophularia canina,8,8,2,4,8,3,0
Scrophularia nodosa,4,5,3,6,6,7,0
Scrophularia umbrosa (alata),7,6,5,9=,8,7,0
Scrophularia vernalis ,5,6,5,5,7,7,0
Scutellaria galericulata,7,6,5,9=,7,6,0
Scutellaria hastifolia,7,7,6,8=,7,5,0
Scutellaria minor,7,6,2,9,2,3,0
Sedum acre,8,6,3,2,x,1,1
Sedum album,9,x,2,2,x,1,0
Sedum alpestre,8,2,2,5,4,2,0
Sedum annuum,9,3,3,3,4,1,0
Sedum atratum,9,2,2,5,8,x,0
Sedum dasyphyllum,7,x,2,3,x,x,0
Sedum forsteranum,8,7,1,3,4,1,0
Sedum rubens (Crassula rubens),7,7,2,3,x,3,0
Sedum rupestre agg. (reflexum),7,5,4,2,5,1,0
Sedum sexangulare (mite),7,5,4,2,6,1,0
Sedum spurium,8,6,4,3,5,3,0
Sedum telephium maximum,8,6,4,3,5,3,0
Sedum telephium telephium,7,6,x,4,7,x,0
Sedum telephium vulgaris (fabaria),9,4,2,3,4,2,0
Sedum villosum,9,5,2,9,4,1,0
Selaginella helvetica,5,5,4,5,8,2,0
Selaginella selaginoides,8,3,3,7,7,3,0
Selinum carvifolia,7,5,5,7,5,3,0
Sempervivum arachnoideum,9,3,4,2,2,1,0
Sempervivum montanum,8,2,2,3,2,1,0
Sempervivum tectorum,8,x,2,2,4,x,0
Senecio abrotanifolius ssp. abrotanifolius,7,3,4,4,7,2,0
Senecio alpinus (cordatus),7,3,4,6,8,9,0
Senecio aquaticus,7,6,2,8,4,5,0
Senecio congestus (tubicaulis),9,6,7,9=,7,7,0
Senecio doronicum,8,2,4,5,8,3,0
Senecio erraticus,8,6,2,6,x,6,0
Senecio erucifolius,8,6,4,3~,8,4,0
Senecio fluviatilis,7,7,5,9=,7,8,0
Senecio fuchsii (ovatus),7,x,4,5,x,8,0
Senecio gaudinii (ovirensis),8,3,4,6,8,8,0
Senecio helenitis (spathulifolius),7,6,2,7,x,2,0
Senecio helenitis ssp. salisburgensis,8,6,2,8,x,2,0
Senecio hercynicus (nemorensis),7,4,7,6,x,8,0
Senecio inaequidens,8,7,x,3,7,3,0
Senecio incanus ssp. carniolicus,8,2,5,5,1,1,0
Senecio integrifolius,7,6,7,4~,8,x,0
Senecio jacobaea,8,5,3,4~,7,5,0
Senecio paludosus,7,6,4,9=,x,6,0
Senecio rivularis,6,4,4,8,6,5,0
Senecio rupestris,8,3,4,5,7,8,0
Senecio subalpinus,6,4,4,8,7,7,0
Senecio sylvaticus,8,6,3,5,5,8,0
Senecio vernalis,7,6,6,4,7,6,1
Senecio viscosus,8,6,4,3,x,4,0
Senecio vulgaris,7,x,x,5,x,8,0
Serratula tinctoria,6,6,5,x,7,3,0
Seseli annuum,8,7,5,3,9,2,0
Seseli hippomarathrum,9,8,6,2,9,1,0
Seseli libanotis ssp. libanotis,7,x,5,3,8,2,0
Sesleria ovata (Psilathera ovata),8,1,4,5,8,2,0
Sesleria uliginosa (caerulea),8,5,4,8,8,2,0
Sesleria varia (albicans),7,3,2,4,9,3,0
Setaria glauca (pumila),7,7,4,4,5,6,0
Setaria italica,8,8,5,4,7,8,0
Setaria verticillata (agg.),7,7,4,4,x,7,0
Setaria verticillata decipiens (gussonei),7,7,7,4,7,6,0
Setaria viridis,7,6,x,4,x,7,0
Sherardia arvensis,6,6,3,4,7,5,0
Sibbaldia procumbens,7,2,3,7,2,4,0
Sigesbeckia cordifolia,7,6,x,6,8,8,0
Silaum silaus (Silaus pratensis),7,6,5,x~,7,3,0
Silene acaulis,9,1,3,4,8,1,0
Silene armeria,7,7,4,4,5,2,0
Silene chlorantha,7,6,8,2,8,2,0
Silene conica,9,7,4,2,5,2,0
Silene dichotoma,7,7,4,4,x,6,0
Silene dioica (Melandrium rubrum),x,x,4,6,7,8,0
Silene exscapa,9,1,5,4,2,1,0
Silene gallica,7,7,3,4,7,6,0
Silene linicola,7,7,4,4,8,4,0
Silene nemoralis (italica ssp. nemor.),7,6,4,x,8,x,0
Silene noctiflora (Melandrium noct.),7,6,4,3~,8,5,0
Silene nutans,7,x,5,3,7,3,0
Silene otites,8,7,7,2,7,2,0
Silene pratensis (alba),8,6,x,4,x,7,0
Silene pusilla (Heliosperma quadr.),8,3,4,9=,9,2,0
Silene rupestris,9,3,2,3,3,1,0
Silene vulgaris (inflata),8,x,x,4~,7,4,0b
Silene vulgaris ssp. glareosa (willdenowii),9,2,x,5,8,2,0
Sinapis arvensis,7,5,3,x,8,6,0
Sisymbrium altissimum (pannonicum),8,6,7,4,7,4,0
Sisymbrium austriacum (pyrenaicum),7,6,4,4,8,7,0
Sisymbrium irio,8,8,3,3,7,5,0
Sisymbrium loeselii,7,6,7,4,7,5,0
Sisymbrium officinale,8,6,5,4,x,7,0
Sisymbrium strictissimum,6,7,4,6,8,7,0
Sisymbrium supinum (Braya supina),8,7,4,7=,7,5,1
Sisymbrium volgense ,8,6,8,3,8,4,0
Sium latifolium,7,6,4,10,7,7,0
Solanum dulcamara,7,5,x,8~,x,8,0
Solanum luteum,8,7,3,5,7,7,0
Solanum nigrum,7,6,3,5,7,8,0
Solanum nitidibaccatum,8,7,x,4,5,7,0
Solanum sarachoides,8,6,4,3,7,5,0
Soldanella alpina,7,2,4,7,8,x,0
Soldanella minima,8,3,4,7,8,3,0
Soldanella montana,5,4,4,6,2,2,0
Soldanella pusilla,7,1,4,7,2,3,0
Solidago canadensis,8,6,5,x,x,6,0
Solidago gigantea,8,6,5,6,x,7,0
Solidago graminifolia,8,6,x,7,7,7,0
Solidago virgaurea ssp. virgaurea,5,x,x,5,x,4,0
Solidago virgaurea ssp. minuta (alpestris),5,3,x,5,2,3,0
Sonchus arvensis,7,5,x,5~,7,x,1
Sonchus asper,7,5,x,6,7,7,1
Sonchus oleraceus,7,6,x,4,8,8,0
Sonchus palustris,7,6,6,8~,7,7,1
Sorbus aria agg.,6,5,2,4,7,3,0
Sorbus aucuparia,6,x,x,x,4,x,0
Sorbus chamaemespilus,7,3,4,4,8,3,0
Sorbus danubialis,6,6,4,3,8,3,0
Sorbus domestica,4,8,4,4,8,3,0
Sorbus intermedia (suecica),6,5,2,x,x,x,0
Sorbus mougeotii (aucuparia x aria),8,4,4,3,4,2,0
Sorbus torminalis,4,7,4,4,7,4,0
Sorghum halepense,8,7,x,6~,7,7,0
Sparganium angustifolium (affine),8,x,3,11,3,1,0
Sparganium emersum (simplex),7,6,3,10,6,7,0
Sparganium erectum (ramosum),7,6,5,10,7,7,0
Sparganium minimum (natans),7,5,5,11,5,3,0
Spartina x townsendii agg. (anglica),8,5,2,9=,8,3,8
Spergula arvensis,6,5,3,5,3,6,0
Spergula pentandra pentandra,9,6,4,2,6,1,0
Spergularia echinosperma,8,6,4,7=,7,8,0
Spergularia media,7,6,x,7=,7,5,8
Spergularia rubra,7,5,x,5~,3,4,0
Spergularia salina (marina),7,6,x,7=,9,x,9
Spergularia segetalis,9,6,2,8,4,x,0
Spiraea salicifolia (x billardii),7,6,7,8=,6,6,0
Spiranthes aestivalis,9,5,3,8,8,2,0
Spiranthes spiralis (autumnalis),8,6,2,4,5,2,0
Spirodela polyrhiza,7,6,5,11,6,6,1
Stachys alpina,7,4,2,5,9,8,0
Stachys annua,7,6,4,3,8,4,0
Stachys arvensis,7,6,2,5,3,6,0
Stachys germanica,7,7,4,3,8,5,0
Stachys palustris,7,5,x,7~,7,6,0
Stachys recta,7,6,4,3,9,2,0
Stachys sylvatica,4,x,3,7,7,7,0
Staphylea pinnata,7,7,4,5,8,4,0
Stellaria crassifolia,9,5,7,9,x,3,0
Stellaria graminea,6,x,x,5,4,3,0
Stellaria holostea,5,6,3,5,6,5,0
Stellaria longifolia (diffusa),4,4,7,7,2,2,0
Stellaria media agg.,6,x,x,x,7,8,0
Stellaria nemorum,4,x,4,7,5,7,0
Stellaria palustris,5,5,7,9~,4,2,0
Stellaria uliginosa (alsine),5,4,3,8,4,4,0
Stipa capillata,8,7,8,2,8,2,0
Stipa pennata bavarica,9,6,x,1,7,1,0
Stipa pennata eriocaulis,9,7,8,2,8,x,0
Stipa pennata eriocaulis,9,6,8,2,8,x,0
Stipa pennata joannis,8,7,8,2,7,2,0
Stipa pennata pulcherrima (grafiana),9,8,7,1,8,1,0
Stipa pennata tirsa (stenophylla),8,7,8,3,6,2,0
Stratiotes aloides,7,6,5,11,8,6,0
Streptopus amplexifolius,5,3,4,5,6,6,0
Suaeda maritima,8,6,x,8=,7,7,8
Subularia aquatica,8,4,3,10,2,1,0
Succisa pratensis,7,5,3,7,x,2,0
Succisella inflexa (Succisa inflexa),8,6,4,8,5,2,0
Swertia perennis,7,4,7,9,8,3,0
Symphytum asperum,8,6,x,5,x,8,0
Symphytum bulbosum,5,8,3,5,6,7,0
Symphytum officinale agg.,7,6,3,7,x,8,0
Symphytum tuberosum ssp. nodos.,4,x,4,6,7,5,0
Tamus communis,6,8,2,5,8,5,0
Tanacetum alpinum,8,2,4,7,2,2,0
Tanacetum corymbosum,6,7,5,4,7,4,0
Tanacetum vulgare,8,6,4,5,8,5,0
Taraxacum alpestre,7,3,4,5,7,6,0
Taraxacum cucullatum agg.,8,2,4,6,6,4,0
Taraxacum fontanum agg.,8,3,3,9,6,5,0
Taraxacum laevigatum agg.,8,6,5,3,7,2,0
Taraxacum obliquum agg. (simile–Gr.) ,9,6,4,3,6,4,0
Taraxacum officinale agg.,7,x,x,5,x,8,1
Taraxacum palustre agg.,8,x,2,8~,8,2,0
Taraxacum spectabile agg. ,8,6,2,7,4,3,x
Taxus baccata,4,5,2,5,7,x,0
Teesdalia nudicaulis,8,6,2,3,1,1,0
Telekia speciosa (Buphthalmum sp.),7,6,4,7,7,7,0
Tetragonolobus maritimus (siliquosus),8,7,4,x,9,1,1
Teucrium botrys,9,6,4,2,8,2,0
Teucrium chamaedrys,7,6,4,2,8,1,0
Teucrium montanum,8,5,4,1,9,1,0
Teucrium scordium agg.,7,7,5,8=,8,4,1
Teucrium scorodonia,6,5,2,4,2,3,0
Thalictrum aquilegiifolium,5,x,4,8=,7,7,0
Thalictrum flavum,7,6,5,8~,8,5,0
Thalictrum lucidum,7,x,5,8,7,3,0
Thalictrum minus,6,x,7,3,8,3,0
Thalictrum simplex,8,6,7,6~,8,2,0
Thalictrum simplex ssp. galioides,8,6,x,6~,8,2,0
Thelypteris limbosperma,4,4,2,6~,3,5,0
Thelypteris palustris,5,6,x,8,5,6,0
Thelypteris phegopteris,2,4,3,6,4,6,0
Thesium alpinum,8,3,4,4,8,2,0
Thesium bavarum (montanum),7,6,4,3~,8,2,0
Thesium ebracteatum,7,6,6,4,2,2,0
Thesium linophyllon,8,7,5,2,8,1,0
Thesium pyrenaicum (pratense),8,4,4,4~,4,2,0
Thesium rostratum,6,5,5,3~,9,2,0
Thlaspi alliaceum,6,7,2,4,8,5,0
Thlaspi alpestre agg. (caerulescens),8,4,2,5,5,4,0
Thlaspi arvense,6,5,x,5,7,6,0
Thlaspi calaminare,8,6,2,5,6,1,0B
Thlaspi montanum,6,5,4,4~,9,2,0
Thlaspi perfoliatum,8,6,5,4,8,2,0
Thlaspi rotundifolium,9,2,4,5,9,3,0
Thymelaea passerina,7,7,6,4,8,4,0
Thymus praecox,8,6,5,3,8,1,0
Thymus praecox ssp. polytrichus,8,3,5,4,8,1,0
Thymus pulegioides ssp. pulegioides,8,x,4,4,x,1,0
Thymus pulegioides ssp. carniolicus,8,7,4,2,8,1,0
Thymus serpyllum,7,6,5,2,5,1,0
Tilia cordata,5,5,4,5,x,5,0
Tilia platyphyllos,4,6,2,6,x,7,0
Tofieldia calyculata,8,x,4,8,8,2,0
Tofieldia pusilla ssp. pusilla,8,2,x,8,7,1,0
Tolpis staticifolia,9,4,4,4~,8,2,0
Tordylium maximum,7,8,4,3,5,5,0
Torilis arvensis (infesta),7,7,3,4,9,4,0
Torilis japonica agg. (anthriscus),6,6,3,5,8,8,0
Torilis nodosa,8,6,3,4,7,6,0
Tozzia alpina,5,2,4,6,8,7,0
Tragopogon dubius (major),8,7,4,4,8,4,0
Tragopogon pratensis pratensis,7,6,3,4,7,6,0
Tragopogon sinuatus (porrifolius),8,6,x,4,7,x,0
Tragus racemosus,8,8,3,4,x,7,0
Trapa natans,8,7,5,11,6,8,0
Traunsteinera globosa,7,3,4,5,8,3,0
Trichophorum alpinum (Eriophorum a.),8,4,4,10,2,2,0
Trichophorum cespitosum cespitosum (austr.),8,4,3,9,1,1,0
Trichophorum cespitosum germanicum,8,5,2,9,1,1,0
Trientalis europaea,5,5,7,x,3,2,0
Trifolium alpestre,7,6,4,3~,6,3,0
Trifolium alpinum,8,2,4,4,2,2,0
Trifolium arvense,8,6,3,3,2,1,0
Trifolium aureum (strepens),7,6,4,4,4,2,0
Trifolium badium,8,2,4,6,8,x,0
Trifolium campestre,8,6,3,4,6,3,0
Trifolium dubium (minus),6,6,3,4,6,4,0
Trifolium fragiferum,8,6,5,7=,8,7,4
Trifolium hybridum,7,6,5,6,7,5,0
Trifolium medium ssp. medium,7,6,4,4,6,3,0
Trifolium micranthum,9,6,3,7~,x,x,0
Trifolium montanum,8,x,4,3~,8,2,0
Trifolium ochroleucon,7,7,4,4~,8,2,0
Trifolium ornithopoides (Trigonella o.),9,6,2,3,x,x,0
Trifolium pallescens,8,3,4,5,5,2,0
Trifolium pratense,7,x,3,5,x,x,0
Trifolium pratense ssp. nivale,8,2,3,5,6,6,0
Trifolium repens,8,x,x,5,6,6,1
Trifolium resupinatum,8,7,3,6~,7,5,2
Trifolium retusum (parviflorum),8,7,6,3,7,x,0
Trifolium rubens,7,6,4,3,8,2,0
Trifolium scabrum,9,9,3,2,9,1,0
Trifolium spadiceum,7,4,4,8,3,3,0
Trifolium striatum,8,7,3,3,2,1,1
Trifolium thalii,7,2,2,5,8,x,0
Triglochin maritimum,8,6,x,7=,x,5,8
Triglochin palustre,8,x,x,9=,x,1,3
Trinia glauca,9,8,5,1,8,1,0
Tripleurospermum maritimum ,9,6,3,6=,7,8,6
Tripleurosper perforatum (inodorum),7,6,3,x,6,6,0
Trisetum distichophyllum,8,2,4,5,9,2,0
Trisetum flavescens,7,x,5,x,x,5,0
Trisetum spicatum ssp. ovatipaniculat.,9,1,4,5,7,1,0
Trollius europaeus,9,3,5,7,6,5,0
Tuberaria guttata (Helianthemum g.),9,7,2,2,5,1,0
Tulipa sylvestris,7,7,4,4,7,5,0
Turgenia latifolia,8,7,5,3,9,3,0
Tussilago farfara,8,x,3,6~,8,x,0
Typha angustifolia,8,7,5,10,7,7,1
Typha latifolia,8,6,5,10,7,8,1
Typha minima agg.,8,x,7,9=,8,2,0
Typha shuttleworthii,8,3,4,10,8,3,0
Ulex europaeus,7,6,1,5,3,2,0
Ulmus glabra (scabra),4,5,3,6,7,7,0
Ulmus laevis (effusa),4,6,5,8=,7,7,0
Ulmus minor agg. (campestris),5,7,5,x~,8,x,0
Urtica dioica,x,x,x,6,7,9,0
Urtica kiovensis,8,6,6,10,7,6,0
Urtica urens,7,6,x,5,x,8,0
Utricularia bremii,8,7,4,12,3,2,0
Utricularia intermedia intermedia,8,6,x,12,8,1,0
Utricularia ochroleuca intermedia,7,6,2,12,3,1,0
Utricularia minor agg.,8,6,x,12,6,2,0
Utricularia vulgaris vulgaris,7,6,x,12,5,4,0
Vaccaria hispanica (pyramidata),7,6,7,2,9,3,0
Vaccinium macrocarpon (Oxycoccus m.),7,5,3,8,1,3,0
Vaccinium myrtillus,5,x,5,x,2,3,0
Vaccinium oxycoccus microcarpum,8,4,6,9,1,1,0
Vaccinium uliginosum uliginosum,6,x,5,x,1,3,0
Vaccinium vitis-idaea,5,x,5,4~,2,1,0
Valeriana dioica,7,x,2,8,5,2,0
Valeriana montana,8,2,2,5,9,2,0
Valeriana officinalis officinalis (exaltata),7,6,5,8~,7,5,0
Valeriana officinalis pratensis,7,8,4,7,9,2,0
Valeriana officinalis procurrens (repens),7,6,4,8=,6,6,0
Valeriana officinalis sambucifolia,7,6,5,8~,6,5,0
Valeriana officinalis versifolia,7,3,3,6,6,6,0
Valeriana officinalis wallrothii (collina),7,x,4,4,7,4,0
Valeriana saxatilis,8,2,4,4,9,2,0
Valeriana supina,8,1,4,5,9,x,0
Valeriana tripteris,7,3,2,5,x,2,0
Valerianella carinata,7,7,3,4,8,x,0
Valerianella dentata,7,6,2,4,7,x,0
Valerianella eriocarpa,7,7,3,4,8,3,0
Valerianella locusta (olitoria),7,6,3,5,7,6,0
Valerianella rimosa,6,7,2,4,7,5,0
Vallisneria spiralis,7,8,3,12,7,7,0
Ventenata dubia (Avena tenuis),9,8,5,3,8,3,0
Veratrum album ssp. album,7,4,4,x,7,6,0
Verbascum blattaria,8,7,7,3,7,6,1
Verbascum densiflorum (thapsiforme),8,6,5,4,8,5,0
Verbascum lychnitis,7,6,5,3,7,3,0
Verbascum nigrum,7,5,5,5,7,7,0
Verbascum phlomoides,8,6,5,4,8,6,0
Verbascum phoeniceum,7,6,6,3,7,2,0
Verbascum pulverulentum,8,8,4,3,9,5,0
Verbascum thapsus,8,x,3,4,7,7,0
Verbena officinalis,9,6,3,5,7,7,0
Veronica acinifolia,8,9,2,7~,4,3,0
Veronica agrestis,6,6,2,6,7,7,0
Veronica alpina ssp. australis,7,2,2,6,x,3,0
Veronica aphylla,8,2,4,5,8,2,0
Veronica arvensis,7,6,3,x,6,x,0
Veronica austriaca austriaca (dentata),8,6,6,3,9,2,0
Veronica austriaca prostrata,8,7,6,2,8,1,0
Veronica austriaca teucrium,7,6,5,3,8,2,0
Veronica beccabunga,7,x,3,10,7,6,0
Veronica bellidioides ssp. bellidioides,8,2,4,4,1,1,0
Veronica chamaedrys,6,x,x,5,x,x,0
Veronica chamaedrys ssp. micans,7,2,3,5,8,4,0
Veronica filiformis,7,x,4,5,5,7,0
Veronica fruticans (saxatilis),8,2,2,4,x,2,0
Veronica fruticulosa,9,3,4,5,9,2,0
Veronica hederifolia agg.,6,6,3,5,7,7,0
Veronica longifolia,7,6,7,8~,7,6,0
Veronica montana,4,5,2,7,5,6,0
Veronica officinalis,6,x,3,4,3,4,0
Veronica opaca ,5,6,4,4,8,6,0
Veronica peregrina ssp. peregrina,8,7,x,8~,8,6,0
Veronica persica (tournefortii),6,x,3,5,7,7,0
Veronica polita,5,6,3,4,8,7,0
Veronica praecox,8,8,5,2,8,1,0
Veronica prostrata,9,7,6,2,8,2,0
Veronica scutellata,8,5,3,9=,3,3,0
Veronica serpyllifolia,x,x,3,5,5,5,0
Veronica serpyllifolia ssp. humifusa,7,3,3,5,6,7,0
Veronica spicata,7,7,6,3,7,2,0
Veronica spuria (paniculata),8,7,6,4,8,3,0
Veronica triphyllos,6,7,3,4,x,4,0
Veronica urticifolia (latifolia),3,4,4,5,7,7,0
Veronica verna verna,8,7,5,2,4,1,0
Veronica vindobonensis,7,6,4,3,8,3,0
Viburnum lantana,7,5,2,4,8,4,0
Viburnum opulus,6,5,3,x,7,6,0
Vicia cassubica,6,6,4,4~,5,3,0
Vicia cracca,7,5,x,6,x,x,1
Vicia dumetorum,6,6,4,5,8,4,0
Vicia grandiflora,7,7,6,4,x,x,0
Vicia hirsuta,7,6,5,4,x,4,0
Vicia lathyroides,8,7,4,2,3,2,0
Vicia lutea,7,7,3,4,7,5,1
Vicia narbonensis agg.,7,7,3,4,8,5,0
Vicia oroboides,6,5,x,5,8,x,0
Vicia orobus,7,7,1,5,5,3,0
Vicia pannonica,7,6,6,4,6,5,0
Vicia pisiformis (Ervum),6,7,4,4,8,3,0
Vicia sativa angustifolia,5,6,3,x,x,x,0
Vicia sepium,x,x,5,5,6,5,0
Vicia sylvatica,7,x,4,4~,8,x,0
Vicia tenuifolia,8,6,6,3,8,2,0
Vicia tetrasperma tenuissima,7,8,2,4,6,6,0
Vicia tetrasperma tetrasperma,6,6,5,5,5,5,0
Vicia villosa,7,6,5,4,6,5,0
Vinca minor,4,6,2,5,7,6,0
Vincetoxicum hirundinaria (officinale),6,5,5,3,7,3,0
Viola alba,5,7,4,5,7,6,0
Viola biflora,4,3,4,6,7,6,0
Viola calaminaria (lutea ssp. c.),8,6,3,4,8,1,0B
Viola calcarata ssp. calcarata,8,1,4,6,8,2,0
Viola canina,7,x,3,4,3,2,0
Viola canina ssp. schultzii,7,6,5,6,5,1,0
Viola cenisia,9,1,5,5,9,2,0
Viola collina,6,5,7,3,8,2,0
Viola elatior,7,7,6,8~,8,2,0
Viola epipsila,8,5,7,9=,3,2,0
Viola hirta,6,5,5,3,8,3,0
Viola mirabilis,4,5,4,5,8,x,0
Viola odorata,5,6,3,5,x,8,0
Viola palustris,6,x,3,9,2,3,0
Viola persicifolia (stagnina),6,7,5,8~,6,3,0
Viola pumila,8,7,6,7~,6,4,0
Viola reichenbachiana (sylvatica),4,x,4,5,7,6,0
Viola riviniana,5,x,3,4,4,x,0
Viola rupestris (arenaria),6,5,7,3,8,2,0
Viola tricolor arvensis,6,5,x,x,x,x,0
Viola tricolor guestphalica,8,6,3,4,6,1,0B
Viola tricolor tricolor ssp. curtisii,8,7,2,3,6,3,1
Viola tricolor tricolor ssp. subalpina,8,4,x,5,5,4,0
Viola tricolor tricolor ssp. tricolor,7,x,x,4,x,x,0
Viscum abietis,7,5,3,,,,0
Viscum album,7,6,3,,,,0
Viscum laxum (austriacum),7,6,3,,,,0
Vitis vinifera ssp. sylvestris,6,8,4,6,8,6,0
Vitis vinifera ssp. vinifera,9,8,3,4,7,x,0
Vulpia bromoides (Festuca sciur.),9,7,2,3,4,1,0
Vulpia myuros,8,7,3,2,5,1,0
Wahlenbergia hederacea,6,6,1,9,4,3,0
Wolffia arrhiza,7,6,5,11,7,6,0
Woodsia alpina,9,2,x,4,4,2,0
Woodsia ilvensis,7,4,5,3,3,2,0
Woodsia pulchella,6,3,x,5,8,2,0
Xanthium alpinum (riparium),8,6,4,8=,7,7,0
Xanthium spinosum,8,7,x,4,6,5,0
Xanthium strumarium,8,7,5,5,7,6,1
Zannichellia palustris,6,6,5,12,8,8,5
Zostera marina,x,6,2,12,7,6,8
